<?xml version="1.0" encoding="UTF-8"?>
<svg width="369px" height="269px" viewBox="0 0 369 269" version="1.1" xmlns="http://www.w3.org/2000/svg" xmlns:xlink="http://www.w3.org/1999/xlink">
    <!-- Generator: Sketch 53 (72520) - https://sketchapp.com -->
    <title>messages-header-icon</title>
    <desc>Created with Sketch.</desc>
    <defs>
        <path d="M339.634129,181.151697 L11.5165486,181.151697 C10.9996721,175.846815 10.737904,170.497823 10.7383246,165.121817 C10.7383246,73.9275554 84.66588,1.87282371e-13 175.860141,1.70530257e-13 L175.291736,1.70530257e-13 C266.485997,1.55865101e-13 340.413552,73.9275554 340.413552,165.121817 C340.413552,170.497838 340.151384,175.846829 339.634129,181.151697 Z" id="path-1"></path>
    </defs>
    <g id="Web-Interface---AR" stroke="none" stroke-width="1" fill="none" fill-rule="evenodd">
        <g id="User-Settings---Support-&gt;-Message-Detail" transform="translate(-137.000000, -195.000000)">
            <g id="header" transform="translate(-0.500000, -0.500000)">
                <g id="messages-header-icon" transform="translate(137.747803, 196.455412)">
                    <mask id="mask-2" fill="white">
                        <use xlink:href="#path-1"></use>
                    </mask>
                    <use id="Combined-Shape" fill="#A7B5D6" fill-rule="nonzero" xlink:href="#path-1"></use>
                    <path d="M140.80956,161.294051 C140.80956,145.148486 127.720994,132.059919 111.575429,132.059919 L28.9886838,132.059919 C12.9786758,132.059919 -1.54358741e-13,145.038595 -1.56319402e-13,161.048603 L-1.56319402e-13,211.430005 C-1.54358741e-13,227.440013 12.9786758,240.418689 28.9886838,240.418689 L113.681113,240.418689 L140.80956,267.547137 L140.80956,161.294051 Z" id="small-speech-ballon" fill="#7E8BAB" fill-rule="nonzero"></path>
                    <path d="M189.153512,215.397302 L223.52913,181.021683 L331.074047,181.021683 C351.393344,181.021683 367.865389,164.549638 367.865389,144.230341 L367.865389,80.3493068 C367.865389,60.0300097 351.393344,43.5579648 331.074047,43.5579648 L226.28073,43.5579648 C216.435168,43.5545379 206.991681,47.4632703 200.028606,54.4239231 C193.06553,61.384576 189.153511,70.8267016 189.153512,80.6722645 L189.153512,215.397302 Z" id="big-speech-ballon" fill="#556286" fill-rule="nonzero"></path>
                    <path d="M328.348866,95.1354684 L228.619526,95.1354684 C226.253029,94.9175382 224.442337,92.9324383 224.442337,90.5559281 C224.442337,88.1794179 226.253029,86.194318 228.619526,85.9763878 L328.348866,85.9763878 C330.715363,86.194318 332.526055,88.1794179 332.526055,90.5559281 C332.526055,92.9324383 330.715363,94.9175382 328.348866,95.1354684 Z M328.348866,119.008502 L228.619526,119.008502 C226.253029,118.790572 224.442337,116.805472 224.442337,114.428962 C224.442337,112.052452 226.253029,110.067352 228.619526,109.849422 L328.348866,109.849422 C330.715363,110.067352 332.526055,112.052452 332.526055,114.428962 C332.526055,116.805472 330.715363,118.790572 328.348866,119.008502 Z M328.348866,142.881536 L263.860671,142.881536 C261.515542,142.632252 259.736319,140.653878 259.736319,138.295536 C259.736319,135.937195 261.515542,133.95882 263.860671,133.709537 L328.452212,133.709537 C330.797342,133.95882 332.576564,135.937195 332.576564,138.295536 C332.576564,140.653878 330.797342,142.632252 328.452212,142.881536 L328.348866,142.881536 Z" id="Combined-Shape" fill="#FFFFFF" fill-rule="nonzero"></path>
                </g>
            </g>
        </g>
    </g>
</svg>