<?xml version="1.0" encoding="UTF-8"?>
<svg width="272px" height="182px" viewBox="0 0 272 182" version="1.1" xmlns="http://www.w3.org/2000/svg" xmlns:xlink="http://www.w3.org/1999/xlink">
    <!-- Generator: Sketch 53 (72520) - https://sketchapp.com -->
    <title>automation-ad</title>
    <desc>Created with Sketch.</desc>
    <defs>
        <linearGradient x1="67.928677%" y1="25.540219%" x2="10.9467487%" y2="74.459781%" id="linearGradient-1">
            <stop stop-color="#FDFDFF" offset="0%"></stop>
            <stop stop-color="#FBFBFD" stop-opacity="0" offset="100%"></stop>
        </linearGradient>
        <linearGradient x1="100%" y1="12.7239072%" x2="10.9467487%" y2="87.2760928%" id="linearGradient-2">
            <stop stop-color="#FDFDFF" stop-opacity="0.341711957" offset="0%"></stop>
            <stop stop-color="#FBFBFD" stop-opacity="0" offset="100%"></stop>
        </linearGradient>
        <linearGradient x1="100%" y1="18.6977733%" x2="10.9467487%" y2="81.3022267%" id="linearGradient-3">
            <stop stop-color="#FDFDFF" stop-opacity="0.341711957" offset="0%"></stop>
            <stop stop-color="#FBFBFD" stop-opacity="0" offset="100%"></stop>
        </linearGradient>
        <linearGradient x1="-1.18310201%" y1="46.2486902%" x2="79.2683863%" y2="51.4823494%" id="linearGradient-4">
            <stop stop-color="#9EABC9" offset="0%"></stop>
            <stop stop-color="#556286" offset="100%"></stop>
        </linearGradient>
        <linearGradient x1="44.8073483%" y1="17.6801222%" x2="52.9693499%" y2="62.7713661%" id="linearGradient-5">
            <stop stop-color="#9EABC9" offset="0%"></stop>
            <stop stop-color="#556286" offset="100%"></stop>
        </linearGradient>
        <linearGradient x1="45.8217876%" y1="17.6801222%" x2="52.389256%" y2="62.7713661%" id="linearGradient-6">
            <stop stop-color="#9EABC9" offset="0%"></stop>
            <stop stop-color="#556286" offset="100%"></stop>
        </linearGradient>
        <linearGradient x1="-1.18310201%" y1="47.3616426%" x2="79.2683863%" y2="51.0425605%" id="linearGradient-7">
            <stop stop-color="#9EABC9" offset="0%"></stop>
            <stop stop-color="#556286" offset="100%"></stop>
        </linearGradient>
    </defs>
    <g id="Web-Interface---AR" stroke="none" stroke-width="1" fill="none" fill-rule="evenodd">
        <g id="Dashboard" transform="translate(-735.000000, -742.000000)" fill-rule="nonzero">
            <g id="automation-ad" transform="translate(735.000000, 692.710449)">
                <g id="switcher" transform="translate(-30.115778, 48.993746)">
                    <path d="M295.523647,185.959564 C295.523647,185.959564 295.329887,145.37853 259.096821,122.127365 C252.121472,118.252171 245.533642,114.376977 238.558292,110.695542 C231.582943,107.014108 224.995113,105.27027 223.445035,88.0256563 C222.34448,75.7819803 221.030211,56.8749547 219.704895,44.6525923 C219.123616,39.3532642 218.453207,34.0539362 217.908743,28.7526706 C217.180206,21.6630028 218.255572,13.833173 213.665405,7.69680299 C208.991921,1.44805238 202.303336,0.74664223 195.116788,0.725328662 C167.269643,0.67301354 134.790028,0.849334876 106.927382,0.725328662 C102.331402,0.711765482 94.7767107,0.5664457 91.4266054,4.45907825 C88.4155795,7.94675302 88.4911458,15.2146797 88.7139694,19.642089 C89.7738351,41.3102373 92.6940458,69.9498131 92.4809101,91.7070908 L32.2216406,154.872756 L30.671563,185.959564 L295.523647,185.959564 Z" id="Shape" fill="url(#linearGradient-1)"></path>
                    <path d="M113.283551,62.0466336 C112.723586,60.4868679 109.264975,57.2665815 105.434346,58.4349526 C103.43087,59.4347527 101.892418,60.3047338 97.7788995,62.6337255 C87.6065148,66.9933189 78.8873279,70.4809937 74.5277345,73.9686685 C70.168141,77.4563432 56.2193796,88.7893486 52.1504257,91.6957442 C48.0814718,94.6021399 38.7810058,100.414931 36.1652497,104.193245 C33.5494936,107.97156 22.7958298,130.639508 21.3445695,133.545904 C19.8933093,136.452299 15.855357,157.95769 0,183.832361 L64.6459893,183.832361 C64.6459893,183.832361 65.517908,172.788058 60.5770354,167.556545 C60.5770354,167.556545 67.5523849,162.034394 70.1662034,145.467939 C72.7800219,128.901484 72.2006804,124.54189 72.2006804,124.54189 C72.2006804,124.54189 73.5569983,123.850168 74.0878999,121.296415 C74.0878999,121.296415 81.1116894,116.661683 84.018085,112.495849 C86.9244806,108.330015 90.7996748,101.742185 92.7372719,100.676507 C94.674869,99.6108283 108.146982,94.75521 110.756925,88.2255078 C110.756925,88.2255078 110.313215,79.2776845 110.603855,72.8836141 C110.834429,67.8051721 112.847592,64.9665924 113.837704,64.0966113 C114.067674,63.8943491 114.109352,63.5517593 113.934584,63.3002589 L113.899707,63.2498814 C113.642462,62.8775439 113.435301,62.4729928 113.283551,62.0466336 L113.283551,62.0466336 Z" id="Shape" fill="#FFE2C6"></path>
                    <path d="M113.891957,63.251819 C113.637869,62.8808755 113.433336,62.4783234 113.283551,62.054384 C112.841779,60.8220722 110.590291,58.5570212 107.774963,58.2334425 C104.686433,59.9966558 88.6082525,69.7175804 86.9128551,81.972882 C85.0372611,95.5360617 80.9683072,110.06804 68.5676858,122.662421 C67.2113679,126.537615 63.3361737,148.432462 51.3230717,159.864285 C44.0183307,166.816383 50.1857022,176.953891 56.1399381,183.832361 L64.6459893,183.832361 C64.6459893,183.832361 65.517908,172.788058 60.5770354,167.556545 C60.5770354,167.556545 67.5523849,162.034394 70.1662034,145.467939 C72.7800219,128.901484 72.2006804,124.54189 72.2006804,124.54189 C72.2006804,124.54189 73.5569983,123.850168 74.0878999,121.296415 C74.0878999,121.296415 81.1116894,116.661683 84.018085,112.495849 C86.9244806,108.330015 90.7996748,101.742185 92.7372719,100.676507 C94.674869,99.6108283 108.146982,94.75521 110.756925,88.2255078 C110.756925,88.2255078 110.313215,79.2776845 110.603855,72.8836141 C110.834429,67.8051721 112.847592,64.9665924 113.837704,64.0966113 C114.067674,63.8943491 114.109352,63.5517593 113.934584,63.3002589 L113.891957,63.251819 Z" id="Shape" fill="#F2D5BD"></path>
                    <path d="M80.6447285,83.5055213 C80.6447285,83.5055213 91.3015125,89.5120723 88.0075974,105.206609 L90.5264736,103.656531 C90.5264736,103.656531 93.0453498,88.9307932 80.6447285,83.5055213 Z" id="Shape" fill="#F2D5BD"></path>
                    <path d="M69.2129056,130.201611 C69.2129056,130.201611 67.8565877,118.769788 58.3623619,114.119555 C58.3623619,114.119555 67.2753086,116.444672 70.7629833,125.938898" id="Shape" fill="#F2D5BD"></path>
                    <ellipse id="Oval" fill="#1144BA" cx="149.621247" cy="80.9866451" rx="39.9106249" ry="42.9235883"></ellipse>
                    <circle id="Oval" fill="#0E449B" cx="145.296531" cy="83.5055213" r="35.5878457"></circle>
                    <ellipse id="Oval" fill="#1F5AE2" cx="134.771503" cy="86.6018015" rx="23.3887345" ry="25.9851146"></ellipse>
                    <path d="M172.47133,102.52885 C170.578297,101.589115 155.244154,94.7028949 142.291317,110.928333 C141.875901,111.453735 141.487866,112.000217 141.128759,112.565602 C135.893372,120.717073 130.981563,132.768927 130.037953,135.760577 C129.069155,138.860733 122.481325,154.555269 121.125007,162.305657 C119.768689,170.056046 109.693184,191.650565 109.693184,191.650565 L164.139662,191.650565 C164.139662,191.650565 166.077259,182.069148 167.627337,176.062597 C169.177415,170.056046 169.177415,162.693177 170.533733,157.461665 C171.890051,152.230153 174.215167,139.442012 175.959005,133.047941 C177.685404,126.721687 183.116488,107.665419 172.990606,102.7788 C172.81816,102.693545 172.639901,102.614104 172.47133,102.52885 Z" id="Shape" fill="#FFE2C6"></path>
                    <path d="M154.72294,191.650565 L164.139662,191.650565 C164.139662,191.650565 166.077259,182.069148 167.627337,176.062597 C169.177415,170.056046 169.177415,162.693177 170.533733,157.461665 C171.890051,152.230153 174.215167,139.442012 175.959005,133.047941 C176.80961,129.932285 178.557322,123.726162 178.904152,117.645982 L178.904152,115.090291 C178.904152,115.090291 155.559982,123.855981 155.559982,134.706524 C155.559982,145.557068 163.05267,153.824795 159.177476,171.39105 C155.951377,186.019908 154.963202,190.544197 154.72294,191.650565 Z" id="Shape" fill="#F2D5BD"></path>
                    <path d="M34.9988162,138.324018 C41.9741658,122.048203 39.0677701,102.284712 39.0677701,102.284712 L37.8548343,102.284712 C37.2324878,102.870188 36.6667848,103.513091 36.1652497,104.204871 C33.5494936,107.983185 22.7958298,130.651134 21.3445695,133.557529 C19.8933093,136.463925 15.855357,157.95769 0,183.832361 L22.511003,183.832361 C25.5220289,169.970791 30.5249046,148.765729 34.9988162,138.324018 Z" id="Shape" fill="#F2D5BD"></path>
                    <path d="M176.96268,118.514026 C176.96268,118.514026 183.80821,101.978572 172.182628,98.7505352 C160.557045,95.5224985 153.453814,105.725885 152.548956,108.051001 C151.644099,110.376118 148.028542,119.546765 147.511204,121.484362 C146.993866,123.421959 146.736165,127.167334 150.998879,129.752089 C155.261592,132.336843 162.236942,134.530203 164.432239,135.82258 C166.627537,137.114958 171.02007,137.242839 172.054746,134.142684 C173.089423,131.042528 176.96268,118.514026 176.96268,118.514026 Z" id="Shape" fill="#FFECDC"></path>
                    <path d="M139.689125,61.0429583 L137.751528,68.8456618 C137.751528,68.8456618 137.274879,71.4052275 134.651372,71.0622728 C132.57233,70.7929468 133.417123,67.983431 133.417123,67.983431 L135.505852,60.6205621 L139.689125,61.0429583 Z" id="Shape" fill="#1144BA"></path>
                    <path d="M292.044875,28.6671193 L248.163083,27.6986401 C248.163083,27.6986401 237.506299,27.6986401 236.903707,37.0165445 C236.401869,44.8114976 235.568702,62.1684923 235.956222,68.5722507 C236.343741,74.9760091 236.343741,81.9513586 247.775564,82.9201572 C259.207387,83.8889557 300.886676,83.8472151 300.886676,83.8472151 C300.873213,68.4504964 300.859751,53.0537776 300.846289,37.6570589 L300.846289,37.6570589 C300.842013,32.7669388 296.933807,28.7750189 292.044875,28.6671193 Z" id="Shape" fill="url(#linearGradient-2)" transform="translate(268.371617, 55.773315) rotate(-1.000000) translate(-268.371617, -55.773315) "></path>
                    <path d="M54.182965,21.4752881 L7.87439457,18.5688925 C7.87439457,18.5688925 1.48032418,17.2125745 1.28656447,24.7692032 C1.16255825,29.8825219 1.85621801,35.0539685 2.48593707,40.1072217 C3.08852976,44.9395889 2.89089486,53.2557556 6.30494093,56.9836924 C9.81392926,60.8162594 17.1361087,61.5738599 22.0188533,62.164827 C28.4129237,62.9398658 54.182965,66.0400212 54.182965,66.0400212 C54.182965,66.0400212 62.1271131,68.7526571 61.9333534,60.6147493 C61.7395937,52.4768415 59.0269577,29.2256765 59.0269577,29.2256765 C59.0269577,29.2256765 58.8254476,21.7678653 54.182965,21.4752881 Z" id="Shape" fill="url(#linearGradient-3)"></path>
                </g>
                <g id="text" transform="translate(97.000000, 59.000000)">
                    <g transform="translate(0.015328, 0.150997)" id="Combined-Shape">
                        <path d="M10.4423793,9.59163389 C10.5589623,9.54543353 10.6895864,9.55030151 10.8024073,9.60505109 C10.9107435,9.69965633 10.9820496,9.82959178 11.0036651,9.97178764 C11.0550668,10.105696 11.0597941,10.2530287 11.0170823,10.3899568 C10.946598,10.4943398 10.8353668,10.5641638 10.7107231,10.5822698 L8.95083493,11.0585801 L7.91100264,7.21679111 L7.18871053,7.41357657 C6.83878312,7.47512785 6.52755632,7.67296193 6.32330172,7.9636814 C6.17360679,8.27024524 6.15424979,8.62431695 6.26963295,8.94537253 L6.84880836,11.0854145 C7.00525894,11.611141 7.02831475,12.1675546 6.91589431,12.7044222 C6.80295715,13.1904151 6.54105595,13.6290018 6.16676782,13.9589295 C5.72959191,14.3347115 5.20904661,14.6007339 4.64838905,14.7348904 C3.67191572,14.9987618 2.86464807,14.9503109 2.2265861,14.5895375 C1.58852413,14.2287641 1.14128444,13.5862298 0.88486701,12.6619344 L0.129031923,9.83314333 L1.1934624,9.54467373 L1.88444773,12.1006486 C2.27652786,13.5467236 3.1076483,14.0945922 4.37780904,13.7442545 C5.04866858,13.5631224 5.47578249,13.2388736 5.67033176,12.7715081 C5.86718501,12.2224761 5.87427125,11.6232951 5.69045755,11.0697611 L5.18284049,9.17122858 C4.79821435,7.75347874 5.29614121,6.85899935 6.67662108,6.4877904 L8.7070893,5.93768558 L9.74468539,9.77947457 L10.4423793,9.59163389 Z M4.52539814,15.3878604 C4.67267487,15.4698005 4.78069979,15.6076532 4.82504873,15.7702503 C4.86408298,15.9271635 4.83879024,16.0931692 4.75479711,16.2313379 C4.67080398,16.3695066 4.53507671,16.4683788 4.37780904,16.5059596 C4.2769983,16.5350337 4.17002438,16.5350337 4.06921365,16.5059596 C3.9673118,16.4785065 3.8741517,16.4253822 3.79863363,16.3516619 C3.72464983,16.2816657 3.67128138,16.1927183 3.64433594,16.0944991 C3.59837564,15.9316976 3.62099804,15.757182 3.70694949,15.6114802 C3.78344931,15.4695799 3.91484332,15.3653022 4.0704096,15.3230288 C4.22597588,15.2807553 4.39207503,15.3041925 4.52987053,15.3878604 L4.52539814,15.3878604 Z M41.1176974,13.5702408 L35.8585418,11.8692458 L35.2977254,11.7473292 C35.1143572,12.5106183 34.8214152,13.0607231 34.4188994,13.3976437 C34.0163837,13.7345643 33.4394445,13.8232668 32.6880818,13.6637513 L31.0824913,13.3171406 L31.3061111,12.3041427 L32.735042,12.612738 C32.9849088,12.67901 33.2468153,12.6859023 33.4998219,12.6328638 C33.6888582,12.5771173 33.8490761,12.4505452 33.9470616,12.2795445 C34.07708,12.0405082 34.1684054,11.7823817 34.2176416,11.5147646 L30.8387457,10.7857639 L31.4179211,8.10232571 C31.574455,7.38450599 31.8651608,6.87018034 32.2945109,6.56605735 C32.723861,6.26193436 33.298564,6.18366741 34.0163837,6.3424375 L36.3643921,6.85005456 L35.5235815,10.7455123 L35.9841162,10.8454397 C36.0435212,10.8462766 36.1028041,10.8584368 36.1586619,10.8819204 L36.1717296,10.8861482 L36.2346926,10.89981 C36.3070248,10.9079832 36.3756729,10.9328278 36.4356501,10.9715342 L39.9601993,12.1118296 L40.1547485,11.5125284 C40.3932764,10.7671289 40.426074,10.1477019 40.2531413,9.65424745 C40.0787178,9.15781139 39.6404229,8.79331104 38.9337842,8.56521879 C38.6370234,8.46959124 38.3324939,8.40000588 38.0236514,8.35725233 L38.1533509,7.38897839 C38.55982,7.42547035 38.9606035,7.50952981 39.3474809,7.63943262 C40.4104206,7.98231639 41.0626451,8.53838441 41.3041546,9.30763669 C41.545664,10.0746528 41.5076486,10.9490064 41.1923446,11.9239889 L41.0201574,12.4606765 L41.7312685,12.6842964 C41.8363728,12.7079443 41.929887,12.7662213 41.9972736,12.848962 L43.5112825,13.4736745 L45.0408422,9.79736415 L46.0493677,10.2177695 L44.1195284,14.8444641 L41.275084,13.6503341 C41.2174228,13.6337692 41.1641175,13.606397 41.1176974,13.5702408 Z M26.5035664,10.2037825 C26.4418143,10.2188177 26.3770056,10.2211955 26.3131176,10.2099813 L25.1098676,10.1299243 C25.016674,10.5744073 24.8230018,10.9916698 24.5436806,11.3497618 C24.2627729,11.7023868 23.8935209,11.974362 23.4734493,12.1380487 C22.9833313,12.3233484 22.4574296,12.3945153 21.9356904,12.3461436 C20.926637,12.2795809 20.1781158,11.9715092 19.690127,11.4219286 C19.2021382,10.872348 18.9912596,10.1191301 19.0574913,9.1622749 L19.2513548,6.23783915 L20.3519585,6.3098365 L20.1746327,8.95291701 C20.076418,10.441195 20.6866039,11.2292409 22.0051904,11.3170548 C22.6942294,11.3634921 23.2064728,11.1971542 23.5419206,10.8180409 C23.9063533,10.3628765 24.1080014,9.79885629 24.1147484,9.21581233 L24.5556718,2.61250267 L25.6718412,2.68728115 L25.2440998,9.10533353 L26.0970515,9.16529734 C26.1817959,9.13371696 26.2749534,9.12828729 26.3641125,9.15110279 L28.3498568,9.40826562 L28.8619462,5.4546667 L29.9442663,5.59554721 L29.3002411,10.5666164 L26.5035664,10.2037825 Z M6.02365112,14.9808722 C6.16908883,15.0628504 6.27426452,15.2011969 6.31435692,15.3632622 C6.3422728,15.461955 6.3422728,15.5664561 6.31435692,15.665149 C6.28510725,15.7671504 6.22958732,15.8596836 6.15335063,15.9334928 C6.07981605,16.0095948 5.98711002,16.0644459 5.88500681,16.0922629 C5.78099914,16.1201669 5.6714743,16.1201669 5.56746663,16.0922629 C5.46236025,16.0670238 5.36540038,16.0154657 5.28570562,15.9424376 C5.20853733,15.8742855 5.15328931,15.7847993 5.12693553,15.6852748 C5.09568644,15.5794505 5.09568644,15.4668502 5.12693553,15.361026 C5.15514531,15.2541857 5.21152177,15.1568784 5.29017802,15.079265 C5.36538061,15.0009379 5.46045077,14.9445142 5.56523043,14.9160225 C5.72044305,14.8735149 5.8863194,14.8969803 6.02365112,14.9808722 Z M10.5452444,10.8237793 C10.42312,10.855765 10.2931655,10.8346474 10.1874527,10.7656381 C10.0891338,10.6610556 10.0319491,10.5244477 10.0264464,10.381012 C9.9899281,10.2419962 10.0042007,10.0945127 10.066698,9.96507904 C10.150917,9.87102418 10.2693162,9.8146436 10.3954192,9.80854515 L11.9607581,9.5849253 L11.0081375,3.21399583 L12.1038748,3.05075334 L13.2018482,10.4302083 L10.5452444,10.8237793 Z M13.6580327,0.494778473 C13.83022,0.541738641 14.0471313,0.613296992 14.3087665,0.718398321 C14.5704017,0.823499649 14.7381166,0.85257023 14.8879419,0.899530398 C15.0154046,0.937767941 15.1488261,0.952171397 15.2815128,0.942018169 C15.3901081,0.937910587 15.4914495,0.886422611 15.5588014,0.801137664 C15.6197661,0.694099477 15.6418846,0.569287884 15.621415,0.447818304 L16.0686547,0.405330533 C16.1121054,0.661043249 16.0688136,0.923942323 15.9456638,1.15222083 C15.8079446,1.33908998 15.5896785,1.4494679 15.3575436,1.44963522 C15.1771489,1.46438781 14.9955622,1.44774237 14.8208559,1.40043886 C14.6263067,1.35124249 14.3892696,1.27744794 14.1142172,1.17681901 C13.8905974,1.09631586 13.6960481,1.0404109 13.5641124,1.00463173 C13.4524825,0.971643369 13.3358753,0.958771148 13.2197378,0.966616352 C13.10217,0.970927524 12.9939114,1.03171888 12.929032,1.12985884 C12.8670674,1.25598718 12.8482129,1.39896719 12.8753633,1.53684696 L12.4281236,1.58157093 C12.3838095,1.30559413 12.4384603,1.02283559 12.5824213,0.783248077 C12.7172448,0.588146636 12.9338853,0.465411098 13.1705415,0.450054503 C13.3344051,0.435881535 13.4994833,0.451026319 13.6580327,0.494778473 Z M14.6151257,10.2647296 L13.8950698,2.84278688 L14.9997518,2.73544935 L15.7198077,10.1573921 L14.6151257,10.2647296 Z M27.9137981,11.2687828 C28.0139799,11.4017072 28.0566722,11.5692545 28.0323166,11.733912 C28.0132602,11.8878343 27.932565,12.0274371 27.8086967,12.1207744 C27.6819442,12.2195771 27.520713,12.2631095 27.361457,12.2415291 C27.2575222,12.2280336 27.1592868,12.1862642 27.0774598,12.1207744 C26.9943116,12.0571049 26.9288703,11.9731861 26.8873829,11.8770287 C26.8452512,11.7839361 26.8297692,11.6809809 26.842659,11.5796143 C26.8580519,11.4158607 26.9386344,11.2651713 27.0662788,11.1614452 C27.1899172,11.0562915 27.3530214,11.0098068 27.5135185,11.0339819 C27.6742903,11.0516865 27.8198888,11.1370934 27.9137981,11.2687828 Z M29.4545388,11.4700406 C29.5563252,11.6013684 29.5999559,11.7686193 29.5752935,11.9329337 C29.5625033,12.03463 29.5214415,12.130699 29.456775,12.2102223 C29.3907514,12.2932482 29.3045123,12.3579276 29.2063208,12.398063 C29.1091443,12.4397053 29.0025396,12.4543828 28.8977254,12.4405508 C28.7903711,12.427165 28.6885021,12.3854913 28.6025472,12.319796 C28.5172019,12.2546135 28.4482811,12.170377 28.4012893,12.0738142 C28.3555023,11.9810309 28.338376,11.8767163 28.352093,11.7741636 C28.3650495,11.6641456 28.4092859,11.5601512 28.4795563,11.474513 C28.5476694,11.3877105 28.6370108,11.3199342 28.7389553,11.2777275 C28.838007,11.234329 28.9470459,11.2188625 29.0542593,11.2330036 C29.2148588,11.2528684 29.3599134,11.3387666 29.4545388,11.4700406 Z M33.0011496,7.5164417 C32.7175129,7.74749431 32.5321031,8.07755569 32.4823515,8.43999168 L32.1424494,10.0053306 L34.4434976,10.5040029 L35.067397,7.61707064 L34.0365095,7.39345079 C33.6893793,7.28781691 33.3138719,7.33242361 33.0011496,7.5164417 Z M45.9711008,7.95026421 C46.0348668,8.09952766 46.0348668,8.26836624 45.9711008,8.41762969 C45.9108252,8.56556721 45.7929641,8.68262102 45.6446158,8.74187847 C45.4975417,8.80573183 45.3308217,8.80701706 45.1827806,8.74543873 C45.0347396,8.68386039 44.9181129,8.56471585 44.8597101,8.41539349 C44.7965346,8.26673185 44.796044,8.09886272 44.8583496,7.94983438 C44.9206553,7.80080604 45.0404809,7.6832386 45.1906675,7.62377923 C45.3374924,7.56064891 45.5036395,7.55974538 45.6511423,7.62127511 C45.798645,7.68280484 45.9148984,7.80150969 45.973337,7.95026421 L45.9711008,7.95026421 Z M47.404504,8.5473292 C47.4681282,8.69739799 47.4681282,8.8668621 47.404504,9.01693088 C47.348396,9.16582114 47.2347706,9.28589344 47.0892,9.35012446 C46.941724,9.41501105 46.773783,9.41501105 46.6263069,9.35012446 C46.5255903,9.3100941 46.4380675,9.24270925 46.3736165,9.15557519 C46.30523,9.07051184 46.2611803,8.96850193 46.2461532,8.86039699 C46.2069024,8.64718156 46.2939532,8.43042523 46.469773,8.30358357 C46.5591459,8.24028313 46.6629163,8.20031229 46.7716598,8.18730125 C46.8791961,8.17145309 46.9890192,8.18537432 47.0892,8.22755282 C47.2354233,8.28612382 47.3516241,8.40151769 47.4112126,8.5473292 L47.404504,8.5473292 Z" fill="url(#linearGradient-4)"></path>
                        <path d="M76.3828891,87.5201767 L75.8064609,89.0214039 L79.525259,90.4503348 L79.1339243,91.4700413 L74.455797,89.6810825 L75.5671877,86.7829693 C75.5871815,86.7095554 75.6247285,86.6429706 75.6757067,86.5884498 L77.1517508,81.5397764 C77.1548856,81.5237647 77.1589103,81.5078565 77.1638334,81.4921237 L77.2980053,80.7675954 C76.5332254,80.6065891 75.9749212,80.3293005 75.6230927,79.9357295 C75.2712641,79.5421586 75.1669082,78.968201 75.3100249,78.2138567 L75.6119117,76.5970852 L76.6316182,76.7871621 L76.3632743,78.2272739 C76.3019515,78.4777565 76.3019515,78.739335 76.3632743,78.9898176 C76.421937,79.1806545 76.5526981,79.3410976 76.7277747,79.4370573 C76.970469,79.5617688 77.2317604,79.6463487 77.5014994,79.6875115 L78.1365797,76.290726 L80.8200179,76.7938707 C81.5430554,76.9280426 82.0648351,77.2053312 82.3853569,77.6257365 C82.7058786,78.0461418 82.799799,78.6186086 82.6671179,79.3431369 L82.2198782,81.7045625 L78.3020584,80.9733256 L78.2257354,81.3891543 C78.2348559,81.4683011 78.2237723,81.5492202 78.1924847,81.6240594 L78.1702034,81.7003951 C78.1639191,81.7496214 78.149925,81.797143 78.1290622,81.8413449 L77.0743855,85.4546674 L77.6759229,85.6313271 C78.4213223,85.8504745 79.0414947,85.8661279 79.53644,85.6782872 C80.0313853,85.4904465 80.3824684,85.0432069 80.5896895,84.3365681 C80.6766283,84.0375666 80.7372368,83.731531 80.7708216,83.421963 L81.7413317,83.5248281 C81.717063,83.9270095 81.6449975,84.3248713 81.5266566,84.7100133 C81.2135889,85.7818977 80.6761558,86.4527573 79.9143575,86.7225919 C79.1525593,86.9924265 78.2796964,86.9797547 77.2957691,86.6845765 L76.7546091,86.5280426 L76.5466426,87.2458624 C76.5258834,87.3541704 76.4676175,87.4511307 76.3828891,87.5201767 Z M79.5996056,72.2024029 L79.4447559,73.7526407 L83.4095358,74.1529202 L83.299962,75.2374765 L78.3132394,74.7365681 L78.624071,71.6573227 C78.6239131,71.5592999 78.6548459,71.4645411 78.7112828,71.3861401 L78.7112828,70.6286714 C78.2618951,70.5621269 77.8331824,70.3955327 77.4567754,70.1411802 C77.0875286,69.8820797 76.79293,69.5304122 76.6025476,69.1214737 C76.3871604,68.6441592 76.2824319,68.1243388 76.2961884,67.6008587 C76.2961884,66.5871154 76.5563328,65.8208447 77.0766217,65.3020467 C77.5969105,64.7832486 78.3341106,64.524595 79.288222,64.5260858 L82.2198782,64.5260858 L82.2198782,65.6285316 L79.5722192,65.6285316 C78.0814202,65.6285316 77.3360207,66.2867194 77.3360207,67.6030949 C77.3360207,68.2963164 77.5350424,68.7979703 77.9330857,69.1080565 C78.4108581,69.4432216 78.9871905,69.6085629 79.569983,69.5776582 L86.1846581,69.5977839 L86.1846581,70.7158832 L79.7533512,70.6935212 L79.7376979,71.8384548 C79.7518496,71.9632247 79.7128974,72.0881963 79.6303603,72.1828294 C79.6202825,72.1896791 79.6100257,72.1962049 79.5996056,72.2024029 Z M78.5267507,55.8463571 C78.5959729,55.9251281 78.6369488,56.025507 78.6419606,56.1313967 L78.8476909,57.4731158 L80.5427293,57.2159529 C81.2702392,57.104143 81.8531416,57.1950818 82.2914365,57.4887692 C82.7297314,57.7824566 83.0040384,58.2915644 83.1143576,59.0160927 L83.3245602,60.3980634 L82.3048537,60.5523611 L82.1304302,59.4096637 C82.107439,59.0480396 81.9308252,58.7135314 81.6451752,58.4905861 C81.3312306,58.3099844 80.9608305,58.2541051 80.6075791,58.3340522 L79.0154057,58.5755616 L79.4402835,61.3618649 L78.4250493,61.5161626 L77.6820618,56.6482411 C77.6302641,56.582383 77.5974762,56.5026038 77.5887111,56.4176301 L77.5887111,56.3751423 C77.4823569,55.9899344 77.4625025,55.5859739 77.53057,55.1921933 C77.5927929,54.898286 77.7637094,54.6387165 78.0091164,54.4654288 C78.3284087,54.2550885 78.6864956,54.1106373 79.0623659,54.0405511 L84.4292423,52.8240591 L84.6752241,53.904143 L79.1898292,55.1474694 C78.9649464,55.1744675 78.7599144,55.2894463 78.6195986,55.4672457 C78.5572523,55.5851428 78.525959,55.7154978 78.5267507,55.8463571 Z M69.869354,43.1815713 C69.8098632,43.3372687 69.6907496,43.4628209 69.5383966,43.5304182 C69.3955366,43.5913201 69.2340169,43.5913201 69.0911569,43.5304182 C68.9391813,43.4767562 68.8161607,43.3626385 68.7512547,43.2151143 C68.7070392,43.1202425 68.690009,43.0149647 68.7020584,42.9109913 C68.7123549,42.8058074 68.7492974,42.7049851 68.8093959,42.6180493 C68.8641027,42.5334134 68.9416243,42.4659696 69.0330157,42.4235 C69.1826438,42.3509335 69.3552823,42.3420596 69.5115622,42.3989018 C69.6637434,42.4511236 69.7878857,42.5634116 69.8550676,42.7096061 C69.9222494,42.8558006 69.9266043,43.0231354 69.8671178,43.1726265 L69.869354,43.1815713 Z M70.5156153,44.5948487 C70.459103,44.7516506 70.3400654,44.8779763 70.1868941,44.9436957 C70.0938832,44.9861443 69.9910446,45.002382 69.8894797,44.9906559 C69.7836009,44.9786622 69.6826553,44.9393628 69.5965377,44.8766097 C69.5099987,44.817031 69.441221,44.735116 69.3975161,44.6395727 C69.3531159,44.5407419 69.3346446,44.4322234 69.3438473,44.3242687 C69.3520729,44.2168995 69.3866352,44.1132127 69.4444762,44.0223819 C69.4976338,43.9353363 69.5754715,43.8660608 69.6680961,43.8233602 C69.7684399,43.7762063 69.8800689,43.7583766 69.9901087,43.7719277 C70.099774,43.7824257 70.2047043,43.8217745 70.2942317,43.8859738 C70.3841118,43.9475022 70.455295,44.0326126 70.4999619,44.1319556 C70.5687987,44.2774906 70.5744631,44.444996 70.5156153,44.5948487 Z M74.8650214,46.8310472 L78.4831905,45.1717879 L78.1723589,44.5009284 C78.053587,44.1658312 77.8066737,43.8915724 77.485846,43.7383847 C77.1589268,43.6412865 76.8066758,43.6799776 76.5086272,43.8457222 L74.4960486,44.7692722 C74.0038221,45.011414 73.4586408,45.1259866 72.9105839,45.1024658 C72.4130573,45.0725736 71.9374807,44.8871925 71.5509752,44.5724867 C71.108436,44.2036331 70.7603726,43.7344374 70.5357411,43.2039333 C70.1153358,42.2841103 70.0296148,41.4798242 70.2785783,40.7910751 C70.5275417,40.102326 71.0880821,39.5581843 71.9601995,39.1586502 L74.6257481,37.9376858 L75.086405,38.9395028 L72.6780193,40.0419486 C71.3273554,40.662121 70.9278212,41.5722538 71.4794169,42.772347 C71.7656503,43.4007187 72.1502764,43.7719277 72.6467125,43.8904462 C73.2180699,43.9941172 73.8076873,43.9035885 74.3216251,43.6332834 L76.1105839,42.8148347 C77.452303,42.2021163 78.4213223,42.5457455 79.0176419,43.8457222 L79.8919956,45.7576719 L75.3368592,47.8440451 L74.8650214,46.8310472 Z M79.6012897,52.5087551 L76.9178516,53.3227314 L75.5157551,48.7072177 L76.4996825,48.4075671 L77.5797663,51.9720675 L79.2188998,51.4733952 C79.5526692,51.4013404 79.8430627,51.1972583 80.0239313,50.907637 C80.1599718,50.5790217 80.1599718,50.2098372 80.0239313,49.8812219 L79.5543296,48.3293002 L80.5427293,48.0296496 L81.0861255,49.8186084 C81.5050401,51.1886526 81.0100948,52.0853682 79.6012897,52.5087551 Z M77.4142876,74.9154639 C77.2857332,75.0216582 77.1191026,75.0701914 76.9536307,75.0496358 C76.8523407,75.0387363 76.7558201,75.0009003 76.6741059,74.9400621 C76.5892293,74.8761143 76.5222322,74.7914053 76.4795567,74.6940803 C76.4349437,74.5985155 76.4171649,74.4926155 76.4281241,74.3877211 C76.439318,74.2799575 76.4777997,74.1768265 76.539934,74.0880705 C76.6025625,74.0003545 76.6854033,73.9290194 76.7814435,73.880104 C76.8725395,73.8314255 76.9761366,73.8111735 77.0788579,73.8219629 C77.1885499,73.8326282 77.2930945,73.8736716 77.3807447,73.9404814 C77.4698483,74.0056837 77.5406926,74.092699 77.5864749,74.1931718 C77.6327061,74.2914366 77.6512615,74.4004495 77.6401437,74.5084758 C77.6245511,74.6695879 77.5427515,74.8169892 77.4142876,74.9154639 Z M77.5708215,73.3702508 C77.4408374,73.4735703 77.2751367,73.5210283 77.1101646,73.5021865 C76.9542061,73.4855951 76.812303,73.4045076 76.7188299,73.2785666 C76.612577,73.1553302 76.563788,72.9927003 76.584658,72.8313269 C76.5938091,72.7265109 76.6325882,72.6264607 76.6964679,72.5428573 C76.7582042,72.4574361 76.8405043,72.3889809 76.9357412,72.3438357 C77.0274067,72.2994827 77.1296549,72.2816667 77.2309194,72.2924031 C77.3969222,72.3065423 77.550158,72.3871927 77.6557971,72.516023 C77.7652246,72.6376357 77.8158916,72.8010778 77.7944414,72.9632627 C77.7801994,73.1242593 77.6990783,73.2718996 77.5708215,73.3702508 Z M81.4640431,78.3457924 C81.2252159,78.0679733 80.8892118,77.8919711 80.5248397,77.8538287 L78.9438474,77.5541781 L78.5122611,79.8664074 L81.4193191,80.4098036 L81.6138684,79.3722075 C81.7092594,79.0244138 81.6557986,78.6526186 81.4662793,78.3457924 L81.4640431,78.3457924 Z M80.8423799,92.784926 C80.6184837,92.8842097 80.3568806,92.8395184 80.1786432,92.6715357 C80.0004057,92.503553 79.9403094,92.2450537 80.0261675,92.0156737 C80.0649262,91.9148436 80.1297452,91.8261032 80.2140081,91.7585109 C80.2973483,91.6884557 80.39757,91.6414286 80.5047139,91.6221028 C80.6092432,91.599709 80.7180326,91.6082567 80.8177817,91.646701 C80.9174295,91.6853372 81.0042135,91.7512001 81.068236,91.8367778 C81.1343542,91.9240309 81.1781148,92.026139 81.1956993,92.1341922 C81.2127796,92.2411432 81.2012055,92.3507106 81.1621563,92.4517324 C81.106369,92.6023281 80.9905568,92.7229995 80.8423799,92.784926 Z M81.3991933,91.3358694 C81.2514599,91.403226 81.0826132,91.4072654 80.9318278,91.3470504 C80.7816658,91.290573 80.6612324,91.1749893 80.5986343,91.027274 C80.5320083,90.8822187 80.5267193,90.7164188 80.5839649,90.567412 C80.6412104,90.4184053 80.7561487,90.2987944 80.9027573,90.2356597 C81.1004889,90.139346 81.334952,90.1581739 81.5147806,90.2848065 C81.6946091,90.4114391 81.7913517,90.6258415 81.7673093,90.8444646 C81.7432669,91.0630878 81.6022435,91.2513426 81.3991933,91.3358694 Z" fill-opacity="0.4" fill="url(#linearGradient-5)"></path>
                    </g>
                    <path d="M18.9424242,25.1496664 L18.9424242,18.1496664" id="option-b" stroke="url(#linearGradient-6)" fill="url(#linearGradient-6)" stroke-linecap="round"></path>
                    <path d="M64.9424242,66.1496664 L71.9424242,66.1496664" id="option-a" stroke="url(#linearGradient-7)" fill="url(#linearGradient-7)" opacity="0.4" stroke-linecap="round" stroke-linejoin="round"></path>
                </g>
            </g>
        </g>
    </g>
</svg>