<svg xmlns="http://www.w3.org/2000/svg" viewBox="0 0 157 138" width="157" height="138">
	<style>
		tspan { white-space:pre }
		.shp0 { fill: #1b998b } 
		.shp1 { fill: #0c7165 } 
		.shp2 { fill: #7b5c21 } 
		.shp3 { fill: #e0a83d } 
		.shp4 { fill: #dda63c } 
		.shp5 { fill: #7f6023 } 
		.shp6 { fill: #846324 } 
		.shp7 { fill: #896725 } 
		.shp8 { fill: #8e6a26 } 
		.shp9 { fill: #926e28 } 
		.shp10 { fill: #977129 } 
		.shp11 { fill: #9c752a } 
		.shp12 { fill: #a0782c } 
		.shp13 { fill: #7e5f22 } 
		.shp14 { fill: #a57c2d } 
		.shp15 { fill: #aa7f2e } 
		.shp16 { fill: #af832f } 
		.shp17 { fill: #b38731 } 
		.shp18 { fill: #b88a32 } 
		.shp19 { fill: #bd8e33 } 
		.shp20 { fill: #c29134 } 
		.shp21 { fill: #c69536 } 
		.shp22 { fill: #cb9837 } 
		.shp23 { fill: #d09c38 } 
		.shp24 { fill: #d49f3a } 
		.shp25 { fill: #d9a33b } 
		.shp26 { fill: #dea63c } 
		.shp27 { fill: #e3aa3d } 
		.shp28 { fill: #e7ad3f } 
		.shp29 { fill: #ecb140 } 
		.shp30 { fill: #eeba57 } 
		.shp31 { fill: #efbe60 } 
		.shp32 { fill: #f0c168 } 
		.shp33 { fill: #f1c46e } 
		.shp34 { fill: #f1c673 } 
		.shp35 { fill: #b98b32 } 
		.shp36 { fill: #e8ae3f } 
		.shp37 { fill: #ce9a38 } 
		.shp38 { fill: #c69436 } 
		.shp39 { fill: #b58831 } 
		.shp40 { fill: #b78932 } 
	</style>
	<g id="Layer">
		<g id="Layer">
			<path id="yolsa" class="shp0" d="M157.49,99.05c0,0 -18.93,19.64 -52.37,1.77l-13.62,9.91c-13.62,9.91 33.08,20.7 56.61,0z" />
		</g>
		<g id="Layer">
			<path id="yolsb" class="shp0" d="M66.59,186.95c0,0 -5,1.7 -11.9,-0.75c-1.95,-1 -5.75,-2.9 -7.75,-5.55l0.35,5.55c0.35,5.55 8.55,9.85 21.8,5.9z" />
		</g>
		<g id="Layer">
			<path id="yolsc" class="shp0" d="M73.87,1.04l-34.85,6.42c-34.85,6.42 4.27,20.31 -2.57,23.52l32.29,-7.05c32.29,-7.05 4.7,-3 5.13,-7.91c0.43,-4.91 0,-14.97 0,-14.97z" />
		</g>
		<g id="Layer">
			<path id="yolsd" class="shp1" d="M40.09,14.39l-16.25,3.89c-16.25,3.89 6.34,13.56 12.62,12.19c6.27,-1.37 3.63,-16.08 3.63,-16.08z" />
		</g>
		<g id="Layer">
			<g id="Layer">
				<g id="Layer">
					<path id="yolse" class="shp2" d="M94.85,82.34c-0.12,0.11 -0.24,0.22 -0.37,0.33c-0.13,0.11 -0.25,0.21 -0.39,0.3c-0.13,0.1 -0.27,0.19 -0.4,0.28c-0.14,0.09 -0.28,0.18 -0.42,0.26c-1.32,0.78 -2.88,1.17 -4.59,1.23c-5.62,0.19 -12.69,-3.25 -16.97,-8.56c-4.9,-6.08 -5.6,-12.96 -1.6,-16.73l-0.5,0.48c-4,3.77 -3.3,10.65 1.6,16.73c4.28,5.31 11.35,8.75 16.97,8.56c1.7,-0.06 3.27,-0.45 4.58,-1.23c0.14,-0.08 0.28,-0.17 0.42,-0.26c0.14,-0.09 0.27,-0.19 0.4,-0.28c0.13,-0.1 0.26,-0.2 0.39,-0.31c0.13,-0.11 0.25,-0.21 0.37,-0.33l0.5,-0.47" />
				</g>
				<g id="Layer">
					<path id="yolsf" class="shp3" d="M76.57,57.02c-1.86,0.06 -3.55,0.48 -4.9,1.27c-5.66,3.34 -5.41,11.12 0.04,17.89c4.28,5.3 11.35,8.75 16.97,8.56c1.7,-0.06 3.27,-0.45 4.59,-1.23c5.66,-3.34 4.88,-10.39 0.31,-17.76c-3.48,-5.61 -11.08,-8.94 -17,-8.73z" />
				</g>
			</g>
			<g id="Layer">
				<g id="Layer">
					<path id="yolsg" class="shp2" d="M64.8,81.84c-0.39,0.19 -0.79,0.36 -1.19,0.51c-0.41,0.15 -0.82,0.27 -1.24,0.38c-0.42,0.1 -0.84,0.18 -1.27,0.24c-0.43,0.06 -0.86,0.09 -1.29,0.1c-8.18,0.2 -15.24,-7.96 -15.77,-18.22c-0.41,-8.04 3.31,-14.98 8.87,-17.71l-0.78,0.38c-5.56,2.73 -9.28,9.67 -8.87,17.71c0.53,10.26 7.59,18.42 15.77,18.22c0.43,-0.01 0.86,-0.04 1.29,-0.1c0.43,-0.06 0.85,-0.14 1.27,-0.24c0.42,-0.1 0.83,-0.23 1.24,-0.38c0.41,-0.15 0.8,-0.32 1.19,-0.51l0.78,-0.38" />
				</g>
				<g id="Layer">
					<path id="yolsh" class="shp4" d="M57.92,45.91c-8.18,0.2 -14.39,8.68 -13.87,18.94c0.52,10.26 7.58,18.42 15.77,18.22c8.18,-0.2 14.39,-8.68 13.87,-18.94c-0.53,-10.26 -7.58,-18.42 -15.76,-18.22z" />
				</g>
			</g>
			<g id="Layer">
				<g id="Layer">
					<g id="Layer">
						<path id="yolsi" class="shp2" d="M91.82,0.66l0.05,-0.02l0.86,-0.31l-0.05,0.02l-0.86,0.31" />
					</g>
					<g id="Layer">
						<path id="yolsj" class="shp5" d="M91.86,0.65c0.02,-0.01 0.04,-0.01 0.05,-0.02c0.02,-0.01 0.04,-0.01 0.05,-0.01c0.02,0 0.04,-0.01 0.06,-0.01c0.02,0 0.04,-0.01 0.06,-0.01l0.86,-0.31c-0.08,0.01 -0.15,0.03 -0.22,0.05l-0.86,0.31" />
					</g>
					<g id="Layer">
						<path id="yolsk" class="shp6" d="M92.08,0.6c0.02,0 0.03,0 0.05,-0.01c0.02,0 0.03,0 0.05,0c0.02,0 0.03,0 0.05,0c0.02,0 0.03,0 0.05,0l0.86,-0.31c-0.06,0 -0.12,0.01 -0.18,0.02l-0.86,0.31" />
					</g>
					<g id="Layer">
						<path id="yolsl" class="shp7" d="M92.27,0.58h0.17l0.86,-0.31h-0.17l-0.86,0.31" />
					</g>
					<g id="Layer">
						<path id="yolsm" class="shp8" d="M92.44,0.59c0.01,0 0.03,0 0.04,0c0.01,0 0.03,0 0.04,0c0.01,0 0.03,0 0.04,0c0.01,0 0.03,0 0.04,0l0.86,-0.31c-0.05,-0.01 -0.11,-0.02 -0.16,-0.02l-0.86,0.31" />
					</g>
					<g id="Layer">
						<path id="yolsn" class="shp9" d="M92.6,0.59c0.01,0 0.03,0 0.04,0.01c0.01,0 0.03,0 0.04,0.01c0.01,0 0.03,0 0.04,0.01c0.01,0 0.03,0.01 0.04,0.01l0.86,-0.31c-0.05,-0.01 -0.11,-0.02 -0.16,-0.03l-0.86,0.31" />
					</g>
					<g id="Layer">
						<path id="yolso" class="shp10" d="M92.76,0.63c0.01,0 0.03,0.01 0.04,0.01c0.01,0 0.03,0.01 0.04,0.01c0.01,0 0.03,0.01 0.04,0.01c0.01,0 0.03,0.01 0.04,0.01l0.86,-0.31c-0.05,-0.02 -0.11,-0.03 -0.16,-0.04l-0.86,0.31" />
					</g>
					<g id="Layer">
						<path id="yolsp" class="shp11" d="M92.92,0.67c0.01,0 0.03,0.01 0.04,0.01c0.01,0 0.03,0.01 0.04,0.01c0.01,0 0.03,0.01 0.04,0.01c0.01,0 0.03,0.01 0.04,0.01l0.86,-0.31c-0.05,-0.02 -0.11,-0.04 -0.16,-0.05l-0.86,0.31" />
					</g>
					<g id="Layer">
						<path id="yolsq" class="shp12" d="M93.17,0.75l0.86,-0.31l-0.09,-0.03l-0.86,0.31z" />
					</g>
				</g>
				<g id="Layer">
					<path id="yolsr" class="shp13" d="M91.48,0.84c-2.13,1.5 -0.99,8.95 2.55,16.64c2.77,6.03 6.18,10.41 8.55,11.31c0.65,0.25 1.23,0.23 1.69,-0.09c2.13,-1.5 0.99,-8.95 -2.55,-16.64c-2.77,-6.03 -6.18,-10.41 -8.55,-11.31c-0.66,-0.25 -1.23,-0.23 -1.69,0.1z" />
				</g>
				<g id="Layer">
					<g id="Layer">
						<path id="yolss" class="shp12" d="M93.25,0.78l0.86,-0.31l-0.08,-0.03l-0.86,0.31z" />
					</g>
					<g id="Layer">
						<path id="yolst" class="shp14" d="M93.25,0.78c0.01,0.01 0.03,0.01 0.04,0.02c0.01,0.01 0.03,0.01 0.04,0.02c0.01,0.01 0.03,0.01 0.04,0.02c0.01,0.01 0.03,0.01 0.04,0.02l0.86,-0.31c-0.06,-0.03 -0.12,-0.05 -0.17,-0.08l-0.86,0.31" />
					</g>
					<g id="Layer">
						<path id="yolsu" class="shp15" d="M93.43,0.86c0.02,0.01 0.03,0.01 0.05,0.02c0.02,0.01 0.03,0.02 0.05,0.02c0.02,0.01 0.03,0.02 0.05,0.02c0.02,0.01 0.03,0.02 0.04,0.02l0.86,-0.31c-0.06,-0.03 -0.12,-0.06 -0.18,-0.09l-0.86,0.31" />
					</g>
					<g id="Layer">
						<path id="yolsv" class="shp16" d="M93.61,0.95c0.02,0.01 0.03,0.02 0.05,0.03c0.02,0.01 0.03,0.02 0.05,0.03c0.02,0.01 0.03,0.02 0.05,0.03c0.02,0.01 0.03,0.02 0.05,0.03l0.86,-0.31c-0.06,-0.04 -0.13,-0.08 -0.19,-0.11l-0.86,0.31" />
					</g>
					<g id="Layer">
						<path id="yolsw" class="shp17" d="M93.8,1.06c0.02,0.01 0.03,0.02 0.05,0.03c0.02,0.01 0.03,0.02 0.05,0.03c0.02,0.01 0.03,0.02 0.05,0.03c0.02,0.01 0.03,0.02 0.05,0.03l0.86,-0.31c-0.07,-0.04 -0.14,-0.08 -0.2,-0.12l-0.86,0.31" />
					</g>
					<g id="Layer">
						<path id="yolsx" class="shp18" d="M94.01,1.18c0.02,0.01 0.04,0.02 0.06,0.04c0.02,0.01 0.04,0.02 0.06,0.04c0.02,0.01 0.04,0.02 0.05,0.04c0.02,0.01 0.04,0.02 0.05,0.04l0.86,-0.31c-0.07,-0.05 -0.15,-0.1 -0.22,-0.15l-0.86,0.31" />
					</g>
					<g id="Layer">
						<path id="yolsy" class="shp19" d="M94.47,1.5l0.86,-0.31c-0.08,-0.06 -0.16,-0.12 -0.24,-0.18l-0.86,0.31c0.08,0.05 0.16,0.11 0.24,0.18z" />
					</g>
					<g id="Layer">
						<path id="yolsz" class="shp20" d="M94.47,1.5c0.02,0.02 0.04,0.03 0.06,0.05c0.02,0.02 0.04,0.03 0.06,0.05c0.02,0.02 0.04,0.03 0.06,0.05c0.02,0.02 0.04,0.03 0.06,0.05l0.86,-0.31c-0.09,-0.07 -0.17,-0.14 -0.25,-0.2l-0.86,0.31" />
					</g>
					<g id="Layer">
						<path id="yolsA" class="shp21" d="M94.72,1.7c0.02,0.02 0.05,0.04 0.07,0.06c0.02,0.02 0.05,0.04 0.07,0.06c0.02,0.02 0.05,0.04 0.07,0.06c0.02,0.02 0.05,0.04 0.07,0.06l0.86,-0.31c-0.1,-0.09 -0.19,-0.17 -0.29,-0.25l-0.86,0.31" />
					</g>
					<g id="Layer">
						<path id="yolsB" class="shp22" d="M95.01,1.95c0.11,0.09 0.21,0.19 0.32,0.29l0.86,-0.31c-0.11,-0.1 -0.21,-0.2 -0.32,-0.29l-0.86,0.31" />
					</g>
					<g id="Layer">
						<path id="yolsC" class="shp23" d="M95.33,2.24c0.03,0.03 0.06,0.06 0.09,0.09c0.03,0.03 0.06,0.06 0.09,0.09c0.03,0.03 0.06,0.06 0.09,0.09c0.03,0.03 0.06,0.06 0.09,0.09l0.86,-0.31c-0.12,-0.12 -0.24,-0.24 -0.35,-0.35l-0.86,0.31" />
					</g>
					<g id="Layer">
						<path id="yolsD" class="shp24" d="M95.68,2.59c0.03,0.03 0.07,0.07 0.1,0.1c0.03,0.03 0.07,0.07 0.1,0.1c0.03,0.03 0.07,0.07 0.1,0.1c0.03,0.04 0.06,0.07 0.1,0.11l0.86,-0.31c-0.13,-0.15 -0.27,-0.29 -0.39,-0.42l-0.86,0.31" />
					</g>
					<g id="Layer">
						<path id="yolsE" class="shp25" d="M96.08,3.01c0.04,0.04 0.07,0.08 0.11,0.12c0.04,0.04 0.07,0.08 0.11,0.12c0.04,0.04 0.07,0.08 0.11,0.13c0.04,0.04 0.07,0.08 0.11,0.13l0.86,-0.31c-0.15,-0.17 -0.3,-0.34 -0.44,-0.5l-0.86,0.31" />
					</g>
					<g id="Layer">
						<path id="yolsF" class="shp26" d="M96.53,3.51c0.04,0.05 0.08,0.1 0.12,0.14c0.04,0.05 0.08,0.1 0.12,0.15c0.04,0.05 0.08,0.1 0.12,0.15c0.04,0.05 0.08,0.1 0.12,0.15l0.86,-0.31c-0.16,-0.2 -0.32,-0.4 -0.48,-0.58l-0.86,0.31" />
					</g>
					<g id="Layer">
						<path id="yolsG" class="shp27" d="M97,4.09c0.17,0.21 0.34,0.43 0.51,0.66l0.86,-0.31c-0.17,-0.23 -0.34,-0.45 -0.51,-0.66l-0.86,0.31" />
					</g>
					<g id="Layer">
						<path id="yolsH" class="shp28" d="M97.52,4.75c0.17,0.23 0.35,0.47 0.52,0.72l0.86,-0.31c-0.17,-0.25 -0.35,-0.49 -0.52,-0.73l-0.86,0.31" />
					</g>
					<g id="Layer">
						<path id="yolsI" class="shp29" d="M98.03,5.47c0.04,0.06 0.09,0.13 0.13,0.19c0.04,0.06 0.09,0.13 0.13,0.19c0.04,0.06 0.09,0.13 0.13,0.19c0.04,0.06 0.09,0.13 0.13,0.2l0.86,-0.31c-0.18,-0.26 -0.35,-0.52 -0.52,-0.77l-0.86,0.31" />
					</g>
					<g id="Layer">
						<path id="yolsJ" class="shp30" d="M98.55,6.25c0.04,0.07 0.09,0.14 0.13,0.21c0.04,0.07 0.09,0.14 0.13,0.21c0.04,0.07 0.09,0.14 0.13,0.21c0.04,0.07 0.09,0.14 0.13,0.21l0.86,-0.31c-0.18,-0.28 -0.35,-0.56 -0.53,-0.83l-0.86,0.31" />
					</g>
					<g id="Layer">
						<path id="yolsK" class="shp31" d="M99.08,7.07c0.05,0.07 0.09,0.15 0.14,0.22c0.05,0.07 0.09,0.15 0.13,0.22c0.04,0.07 0.09,0.15 0.13,0.22c0.04,0.07 0.09,0.15 0.13,0.23l0.86,-0.3c-0.18,-0.3 -0.36,-0.6 -0.54,-0.89l-0.86,0.31" />
					</g>
					<g id="Layer">
						<path id="yolsL" class="shp32" d="M99.62,7.97c0.19,0.33 0.38,0.67 0.57,1.02l0.86,-0.31c-0.19,-0.35 -0.38,-0.69 -0.57,-1.02l-0.86,0.31" />
					</g>
					<g id="Layer">
						<path id="yolsM" class="shp33" d="M100.19,8.99c0.22,0.4 0.44,0.82 0.66,1.24l0.86,-0.31c-0.22,-0.43 -0.44,-0.84 -0.66,-1.25l-0.86,0.31" />
					</g>
					<g id="Layer">
						<path id="yolsN" class="shp34" d="M100.85,10.24c0.22,0.43 0.43,0.86 0.64,1.3c0.21,0.44 0.41,0.87 0.6,1.31c0.19,0.44 0.38,0.88 0.56,1.33c0.18,0.45 0.36,0.89 0.52,1.35l0.86,-0.31c-0.17,-0.45 -0.34,-0.9 -0.52,-1.35c-0.18,-0.45 -0.37,-0.89 -0.56,-1.33c-0.19,-0.44 -0.39,-0.88 -0.6,-1.31c-0.21,-0.43 -0.42,-0.87 -0.64,-1.3l-0.86,0.31" />
					</g>
					<g id="Layer">
						<path id="yolsO" class="shp33" d="M103.17,15.52c0.14,0.39 0.28,0.77 0.41,1.15l0.86,-0.31c-0.13,-0.38 -0.27,-0.77 -0.41,-1.16l-0.86,0.31" />
					</g>
					<g id="Layer">
						<path id="yolsP" class="shp32" d="M103.58,16.68c0.1,0.3 0.2,0.61 0.3,0.91l0.86,-0.31c-0.1,-0.3 -0.2,-0.6 -0.3,-0.9l-0.86,0.31" />
					</g>
					<g id="Layer">
						<path id="yolsQ" class="shp31" d="M103.88,17.58c0.02,0.06 0.04,0.13 0.06,0.19c0.02,0.06 0.04,0.13 0.06,0.19c0.02,0.06 0.04,0.13 0.06,0.19c0.02,0.06 0.04,0.13 0.06,0.19l0.86,-0.31c-0.08,-0.26 -0.16,-0.52 -0.24,-0.78l-0.86,0.31" />
					</g>
					<g id="Layer">
						<path id="yolsR" class="shp30" d="M104.12,18.36c0.02,0.06 0.04,0.12 0.05,0.18c0.02,0.06 0.03,0.12 0.05,0.18c0.02,0.06 0.03,0.12 0.05,0.18c0.02,0.06 0.03,0.12 0.05,0.18l0.86,-0.31c-0.06,-0.24 -0.13,-0.48 -0.21,-0.72l-0.86,0.31" />
					</g>
					<g id="Layer">
						<path id="yolsS" class="shp29" d="M104.51,19.75l0.86,-0.31c-0.06,-0.22 -0.12,-0.45 -0.18,-0.67l-0.86,0.31c0.06,0.23 0.12,0.45 0.18,0.67z" />
					</g>
					<g id="Layer">
						<path id="yolsT" class="shp28" d="M104.67,20.39l0.86,-0.31c-0.05,-0.21 -0.1,-0.42 -0.16,-0.64l-0.86,0.31c0.06,0.22 0.11,0.43 0.16,0.64z" />
					</g>
					<g id="Layer">
						<path id="yolsU" class="shp27" d="M104.66,20.39c0.01,0.05 0.02,0.1 0.04,0.16c0.01,0.05 0.02,0.1 0.04,0.16c0.01,0.05 0.02,0.1 0.03,0.16c0.01,0.05 0.02,0.1 0.03,0.16l0.86,-0.31c-0.05,-0.2 -0.09,-0.41 -0.14,-0.62l-0.86,0.31" />
					</g>
					<g id="Layer">
						<path id="yolsV" class="shp26" d="M104.81,21.01c0.04,0.2 0.09,0.4 0.12,0.6l0.86,-0.31c-0.04,-0.2 -0.08,-0.4 -0.12,-0.6l-0.86,0.31" />
					</g>
					<g id="Layer">
						<path id="yolsW" class="shp25" d="M104.93,21.61c0.04,0.2 0.08,0.39 0.11,0.58l0.86,-0.31l-0.11,-0.58l-0.86,0.31" />
					</g>
					<g id="Layer">
						<path id="yolsX" class="shp24" d="M105.04,22.19c0.01,0.05 0.02,0.09 0.02,0.14c0.01,0.05 0.02,0.09 0.02,0.14c0.01,0.05 0.02,0.09 0.02,0.14c0.01,0.05 0.01,0.09 0.02,0.14l0.86,-0.31c-0.03,-0.18 -0.06,-0.37 -0.09,-0.56l-0.86,0.31" />
					</g>
					<g id="Layer">
						<path id="yolsY" class="shp23" d="M105.13,22.75c0.01,0.04 0.01,0.09 0.02,0.13c0.01,0.04 0.01,0.09 0.02,0.13c0.01,0.04 0.01,0.09 0.02,0.13c0.01,0.04 0.01,0.09 0.02,0.13l0.86,-0.31l-0.07,-0.53l-0.86,0.31" />
					</g>
					<g id="Layer">
						<path id="yolsZ" class="shp22" d="M105.2,23.28c0.01,0.04 0.01,0.08 0.01,0.12c0,0.04 0.01,0.08 0.01,0.12c0,0.04 0.01,0.08 0.01,0.12c0,0.04 0.01,0.08 0.01,0.12l0.86,-0.31c-0.02,-0.16 -0.04,-0.33 -0.06,-0.5l-0.86,0.31" />
					</g>
					<g id="Layer">
						<path id="yolsaa" class="shp21" d="M105.26,23.78c0.02,0.15 0.03,0.31 0.04,0.46l0.86,-0.31c-0.01,-0.15 -0.03,-0.3 -0.04,-0.46l-0.86,0.31" />
					</g>
					<g id="Layer">
						<path id="yolsab" class="shp20" d="M105.3,24.23c0,0.03 0.01,0.07 0.01,0.1c0,0.03 0,0.07 0.01,0.1c0,0.03 0,0.07 0.01,0.1c0,0.03 0,0.07 0.01,0.1l0.86,-0.31c-0.01,-0.14 -0.02,-0.28 -0.03,-0.42l-0.86,0.31" />
					</g>
					<g id="Layer">
						<path id="yolsac" class="shp19" d="M105.34,25.03l0.86,-0.31c0,-0.12 -0.01,-0.25 -0.01,-0.38l-0.86,0.31c0.01,0.13 0.01,0.26 0.01,0.39z" />
					</g>
					<g id="Layer">
						<path id="yolsad" class="shp18" d="M105.34,25.03v0.35l0.86,-0.31v-0.35l-0.86,0.31" />
					</g>
					<g id="Layer">
						<path id="yolsae" class="shp17" d="M105.35,25.38c-0.01,0.11 -0.01,0.21 -0.01,0.32l0.86,-0.31c0.01,-0.1 0.01,-0.21 0.01,-0.32l-0.86,0.31" />
					</g>
					<g id="Layer">
						<path id="yolsaf" class="shp16" d="M105.33,25.7c0,0.1 -0.01,0.2 -0.01,0.3l0.86,-0.31c0.01,-0.1 0.02,-0.2 0.02,-0.3l-0.86,0.31" />
					</g>
					<g id="Layer">
						<path id="yolsag" class="shp15" d="M105.32,26c0,0.09 -0.01,0.18 -0.02,0.27l0.86,-0.31c0.01,-0.09 0.02,-0.18 0.02,-0.27l-0.86,0.31" />
					</g>
					<g id="Layer">
						<path id="yolsah" class="shp14" d="M105.3,26.27c-0.01,0.09 -0.02,0.17 -0.03,0.26l0.86,-0.31c0,-0.02 0.01,-0.04 0.01,-0.06c0,-0.02 0.01,-0.04 0.01,-0.06c0,-0.02 0,-0.04 0.01,-0.06c0,-0.02 0,-0.04 0.01,-0.06l-0.86,0.31" />
					</g>
					<g id="Layer">
						<path id="yolsai" class="shp12" d="M105.28,26.52c-0.01,0.08 -0.02,0.16 -0.03,0.24l0.86,-0.31c0.01,-0.08 0.03,-0.16 0.04,-0.24l-0.86,0.31" />
					</g>
					<g id="Layer">
						<path id="yolsaj" class="shp11" d="M105.23,26.76c-0.01,0.07 -0.03,0.15 -0.04,0.22l0.86,-0.31c0,-0.02 0.01,-0.04 0.01,-0.06c0,-0.02 0.01,-0.04 0.01,-0.06c0,-0.02 0.01,-0.04 0.01,-0.06c0,-0.02 0.01,-0.04 0.01,-0.06l-0.86,0.31" />
					</g>
					<g id="Layer">
						<path id="yolsak" class="shp10" d="M105.19,26.99c-0.01,0.08 -0.03,0.15 -0.05,0.22l0.86,-0.31c0.02,-0.07 0.03,-0.15 0.05,-0.22l-0.86,0.31" />
					</g>
					<g id="Layer">
						<path id="yolsal" class="shp9" d="M105.15,27.2c-0.02,0.07 -0.04,0.14 -0.06,0.21l0.86,-0.31c0.01,-0.02 0.01,-0.03 0.02,-0.05c0.01,-0.02 0.01,-0.03 0.02,-0.05c0,-0.02 0.01,-0.04 0.01,-0.05c0,-0.02 0.01,-0.04 0.01,-0.05l-0.86,0.31" />
					</g>
					<g id="Layer">
						<path id="yolsam" class="shp8" d="M105.09,27.41c-0.02,0.07 -0.04,0.13 -0.06,0.2l0.86,-0.31c0.02,-0.07 0.04,-0.13 0.06,-0.2l-0.86,0.31" />
					</g>
					<g id="Layer">
						<path id="yolsan" class="shp7" d="M104.94,27.82l0.86,-0.31c0.01,-0.02 0.02,-0.04 0.02,-0.05c0.01,-0.02 0.01,-0.04 0.02,-0.05c0.01,-0.02 0.01,-0.04 0.02,-0.05c0.01,-0.02 0.01,-0.04 0.02,-0.05l-0.86,0.31c-0.03,0.07 -0.06,0.14 -0.09,0.21z" />
					</g>
					<g id="Layer">
						<path id="yolsao" class="shp6" d="M104.94,27.83c-0.03,0.07 -0.06,0.14 -0.1,0.2l0.86,-0.31c0.03,-0.06 0.07,-0.13 0.1,-0.2l-0.86,0.31" />
					</g>
					<g id="Layer">
						<path id="yolsap" class="shp5" d="M104.84,28.03c-0.05,0.09 -0.1,0.17 -0.15,0.25l0.86,-0.31c0.01,-0.02 0.03,-0.04 0.04,-0.06c0.01,-0.02 0.03,-0.04 0.04,-0.06c0.01,-0.02 0.03,-0.04 0.04,-0.06c0.01,-0.02 0.02,-0.04 0.04,-0.06l-0.86,0.31" />
					</g>
					<g id="Layer">
						<path id="yolsaq" class="shp2" d="M104.68,28.28c-0.11,0.16 -0.25,0.31 -0.41,0.42c-0.1,0.07 -0.22,0.14 -0.34,0.18l0.86,-0.31c0.12,-0.04 0.23,-0.1 0.34,-0.18c0.04,-0.03 0.08,-0.06 0.12,-0.09c0.04,-0.03 0.07,-0.07 0.11,-0.1c0.03,-0.04 0.07,-0.07 0.1,-0.11c0.03,-0.04 0.06,-0.08 0.09,-0.12l-0.86,0.31" />
					</g>
				</g>
			</g>
			<g id="Layer">
				<g id="Layer">
					<g id="Layer">
						<path id="yolsar" class="shp9" d="M66.91,92.33c0.01,0.02 0.02,0.05 0.02,0.07c0.01,0.02 0.02,0.05 0.02,0.07c0.01,0.02 0.02,0.05 0.02,0.07c0.01,0.02 0.01,0.05 0.02,0.07l0.45,1.25c-0.03,-0.09 -0.06,-0.19 -0.09,-0.28l-0.45,-1.25" />
					</g>
					<g id="Layer">
						<path id="yolsas" class="shp10" d="M66.15,100.58l0.45,1.25c1.19,-3.04 1.5,-5.87 0.86,-7.97l-0.45,-1.25c0.64,2.1 0.33,4.93 -0.86,7.97z" />
					</g>
					<g id="Layer">
						<path id="yolsat" class="shp9" d="M66.15,100.58c-0.16,0.4 -0.33,0.79 -0.51,1.18c-0.18,0.39 -0.37,0.78 -0.57,1.16c-0.2,0.38 -0.41,0.76 -0.62,1.13c-0.22,0.37 -0.44,0.73 -0.68,1.09l0.45,1.25c0.24,-0.36 0.46,-0.72 0.68,-1.09c0.22,-0.37 0.43,-0.75 0.62,-1.13c0.2,-0.38 0.39,-0.77 0.57,-1.16c0.18,-0.39 0.35,-0.78 0.51,-1.18l-0.45,-1.25" />
					</g>
					<g id="Layer">
						<path id="yolsau" class="shp8" d="M63.78,105.14c-0.41,0.63 -0.85,1.25 -1.32,1.87c-0.5,0.64 -1.01,1.26 -1.54,1.84l0.45,1.25c0.13,-0.15 0.27,-0.3 0.4,-0.45c0.13,-0.15 0.26,-0.3 0.39,-0.46c0.13,-0.15 0.25,-0.31 0.38,-0.46c0.12,-0.16 0.25,-0.31 0.37,-0.47c0.12,-0.15 0.23,-0.3 0.34,-0.46c0.11,-0.15 0.22,-0.31 0.33,-0.46c0.11,-0.16 0.22,-0.31 0.33,-0.47c0.11,-0.16 0.21,-0.32 0.32,-0.48l-0.45,-1.25" />
					</g>
					<g id="Layer">
						<path id="yolsav" class="shp7" d="M60.92,108.85c-0.22,0.25 -0.45,0.49 -0.69,0.73c-0.23,0.24 -0.47,0.48 -0.71,0.71c-0.24,0.23 -0.49,0.46 -0.74,0.68c-0.25,0.22 -0.5,0.44 -0.76,0.66l0.45,1.25c0.26,-0.21 0.51,-0.43 0.76,-0.66c0.25,-0.22 0.5,-0.45 0.74,-0.68c0.24,-0.23 0.48,-0.47 0.71,-0.71c0.23,-0.24 0.46,-0.49 0.69,-0.74l-0.45,-1.25" />
					</g>
					<g id="Layer">
						<path id="yolsaw" class="shp6" d="M58.01,111.64c-0.22,0.18 -0.44,0.36 -0.67,0.54c-0.23,0.17 -0.45,0.35 -0.68,0.51c-0.23,0.17 -0.47,0.33 -0.7,0.49c-0.24,0.16 -0.48,0.31 -0.72,0.46l0.45,1.25c0.24,-0.15 0.48,-0.3 0.72,-0.46c0.24,-0.16 0.47,-0.32 0.7,-0.49c0.23,-0.17 0.46,-0.34 0.69,-0.51c0.23,-0.17 0.45,-0.35 0.67,-0.54l-0.45,-1.25" />
					</g>
					<g id="Layer">
						<path id="yolsax" class="shp5" d="M54.61,114.01c-0.22,0.12 -0.44,0.24 -0.66,0.35c-0.22,0.11 -0.45,0.22 -0.67,0.32c-0.23,0.1 -0.46,0.2 -0.69,0.3l0.45,1.25c0.92,-0.37 1.81,-0.83 2.66,-1.35l-0.45,-1.25c-0.21,0.13 -0.43,0.26 -0.64,0.38z" />
					</g>
					<g id="Layer">
						<path id="yolsay" class="shp2" d="M52.58,114.97c-0.23,0.09 -0.45,0.18 -0.69,0.26c-0.23,0.08 -0.46,0.15 -0.7,0.21c-0.24,0.06 -0.47,0.12 -0.71,0.17c-0.24,0.05 -0.48,0.09 -0.72,0.13c-1.57,0.21 -2.98,-0.02 -4.1,-0.73c-0.91,-0.58 -1.54,-1.43 -1.92,-2.49l0.45,1.25c0.38,1.06 1.01,1.91 1.92,2.49c1.12,0.72 2.53,0.94 4.1,0.74c0.97,-0.14 1.92,-0.4 2.82,-0.77l-0.45,-1.25" />
					</g>
				</g>
				<g id="Layer">
					<path id="yolsaz" class="shp23" d="M48.21,97.85c-5.34,6.95 -6.48,14.63 -2.55,17.16c1.12,0.72 2.53,0.94 4.1,0.74c3.94,-0.52 8.87,-3.77 12.69,-8.74c5.34,-6.95 6.48,-14.63 2.55,-17.16c-1.12,-0.72 -2.53,-0.95 -4.1,-0.74c-3.94,0.52 -8.87,3.77 -12.69,8.74z" />
				</g>
			</g>
			<g id="Layer">
				<g id="Layer">
					<g id="Layer">
						<path id="yolsaA" class="shp6" d="M1.72,119.52c0,0 0.01,0 0.01,0c0,0 0.01,0 0.01,0c0,0 0.01,0 0.01,0c0,0 0.01,0 0.01,0l1.57,-0.16h-0.05l-1.57,0.16" />
					</g>
					<g id="Layer">
						<path id="yolsaB" class="shp7" d="M1.79,119.51l1.58,-0.16h-0.02l-1.57,0.16z" />
					</g>
				</g>
				<g id="Layer">
					<path id="yolsaC" class="shp35" d="M1.79,119.51c-0.02,0 -0.03,0 -0.05,0c-0.02,0 -0.03,0 -0.04,0c-0.01,0 -0.03,0 -0.04,0.01c-0.01,0 -0.03,0.01 -0.04,0.01c-1.38,0.41 -0.97,6.15 0.91,12.82c1.8,6.39 4.3,11.32 5.72,11.36c0.02,0 0.03,0 0.05,0c0.02,0 0.03,0 0.04,0c0.01,0 0.03,0 0.04,-0.01c0.01,0 0.03,-0.01 0.04,-0.01c1.38,-0.41 0.97,-6.15 -0.91,-12.82c-1.8,-6.39 -4.3,-11.32 -5.72,-11.36z" />
				</g>
				<g id="Layer">
					<g id="Layer">
						<path id="yolsaD" class="shp7" d="M1.83,119.51l1.57,-0.16h-0.04l-1.57,0.16z" />
					</g>
					<g id="Layer">
						<path id="yolsaE" class="shp8" d="M1.83,119.52c0.01,0 0.01,0 0.02,0c0.01,0 0.01,0 0.02,0c0.01,0 0.01,0 0.01,0c0,0 0.01,0 0.01,0l1.57,-0.16c-0.02,0 -0.04,-0.01 -0.06,-0.01l-1.57,0.16" />
					</g>
					<g id="Layer">
						<path id="yolsaF" class="shp9" d="M1.95,119.53l1.57,-0.16l-0.06,-0.01l-1.57,0.16z" />
					</g>
					<g id="Layer">
						<path id="yolsaG" class="shp10" d="M1.95,119.54c0.01,0 0.01,0 0.02,0c0.01,0 0.01,0 0.02,0c0.01,0 0.01,0 0.02,0c0.01,0 0.01,0 0.02,0.01l1.58,-0.16c-0.01,0 -0.01,0 -0.02,-0.01c-0.01,0 -0.01,0 -0.02,0c-0.01,0 -0.01,0 -0.02,0c-0.01,0 -0.01,0 -0.02,0l-1.57,0.16" />
					</g>
					<g id="Layer">
						<path id="yolsaH" class="shp11" d="M2.01,119.56c0.01,0 0.02,0.01 0.02,0.01c0.01,0 0.01,0.01 0.02,0.01c0.01,0 0.01,0.01 0.02,0.01c0.01,0 0.01,0.01 0.02,0.01l1.57,-0.16c-0.03,-0.01 -0.06,-0.02 -0.09,-0.03l-1.57,0.16" />
					</g>
					<g id="Layer">
						<path id="yolsaI" class="shp12" d="M2.1,119.59c0.01,0 0.02,0.01 0.02,0.01c0.01,0 0.02,0.01 0.02,0.01c0.01,0 0.02,0.01 0.02,0.01c0.01,0 0.01,0.01 0.02,0.01l1.57,-0.16c-0.03,-0.02 -0.06,-0.03 -0.09,-0.05l-1.57,0.16" />
					</g>
					<g id="Layer">
						<path id="yolsaJ" class="shp14" d="M2.19,119.64c0.01,0.01 0.02,0.01 0.03,0.02c0.01,0.01 0.02,0.01 0.03,0.02c0.01,0.01 0.02,0.01 0.03,0.02c0.01,0.01 0.02,0.01 0.03,0.02l1.57,-0.16c-0.04,-0.03 -0.08,-0.05 -0.12,-0.08l-1.57,0.16" />
					</g>
					<g id="Layer">
						<path id="yolsaK" class="shp15" d="M2.32,119.71c0.01,0.01 0.03,0.02 0.04,0.03c0.01,0.01 0.03,0.02 0.04,0.03c0.01,0.01 0.03,0.02 0.04,0.03c0.01,0.01 0.03,0.02 0.04,0.03l1.57,-0.17c-0.05,-0.04 -0.11,-0.09 -0.17,-0.12l-1.57,0.16" />
					</g>
					<g id="Layer">
						<path id="yolsaL" class="shp16" d="M2.48,119.84c0.03,0.02 0.06,0.05 0.08,0.07c0.03,0.02 0.05,0.05 0.08,0.08c0.03,0.03 0.05,0.05 0.08,0.08c0.03,0.03 0.05,0.05 0.08,0.08l1.57,-0.16c-0.1,-0.11 -0.21,-0.21 -0.32,-0.31l-1.57,0.16" />
					</g>
					<g id="Layer">
						<path id="yolsaM" class="shp17" d="M2.8,120.14c1.42,1.52 3.28,5.67 4.71,10.73c0.07,0.25 0.14,0.5 0.21,0.75l1.57,-0.16c-0.06,-0.25 -0.13,-0.5 -0.21,-0.75c-1.43,-5.06 -3.29,-9.21 -4.71,-10.73l-1.57,0.16" />
					</g>
					<g id="Layer">
						<path id="yolsaN" class="shp16" d="M7.72,131.63c0.14,0.5 0.27,1.01 0.39,1.52c0.12,0.51 0.24,1.02 0.34,1.53c0.11,0.51 0.2,1.02 0.29,1.54c0.09,0.51 0.17,1.03 0.25,1.55l1.57,-0.16c-0.3,-2.07 -0.72,-4.11 -1.27,-6.13l-1.57,0.16" />
					</g>
					<g id="Layer">
						<path id="yolsaO" class="shp15" d="M8.99,137.75c0.03,0.21 0.06,0.43 0.08,0.64c0.02,0.21 0.05,0.43 0.07,0.64c0.02,0.21 0.04,0.43 0.05,0.64c0.01,0.21 0.03,0.43 0.04,0.64l1.57,-0.16c-0.03,-0.76 -0.11,-1.62 -0.24,-2.57l-1.57,0.16" />
					</g>
					<g id="Layer">
						<path id="yolsaP" class="shp14" d="M9.23,140.32c0.02,0.44 0.02,0.83 0,1.19l1.57,-0.16c0.02,-0.36 0.02,-0.76 0,-1.2l-1.57,0.16" />
					</g>
					<g id="Layer">
						<path id="yolsaQ" class="shp12" d="M9.17,142.16l1.57,-0.16c0.02,-0.2 0.04,-0.41 0.05,-0.64l-1.57,0.16c-0.01,0.23 -0.03,0.44 -0.05,0.64z" />
					</g>
					<g id="Layer">
						<path id="yolsaR" class="shp11" d="M9.11,142.57l1.57,-0.16c0.03,-0.13 0.05,-0.26 0.07,-0.41l-1.57,0.16c-0.02,0.15 -0.04,0.28 -0.07,0.41z" />
					</g>
					<g id="Layer">
						<path id="yolsaS" class="shp10" d="M9.11,142.57c-0.02,0.1 -0.04,0.19 -0.07,0.28l1.57,-0.16c0.03,-0.09 0.05,-0.18 0.07,-0.28l-1.57,0.16" />
					</g>
					<g id="Layer">
						<path id="yolsaT" class="shp9" d="M9.04,142.85c0,0.02 -0.01,0.03 -0.01,0.05c0,0.02 -0.01,0.03 -0.01,0.05c-0.01,0.02 -0.01,0.03 -0.02,0.05c-0.01,0.02 -0.01,0.03 -0.02,0.05l1.57,-0.16c0.01,-0.02 0.01,-0.03 0.02,-0.05c0.01,-0.02 0.01,-0.03 0.02,-0.05c0.01,-0.02 0.01,-0.03 0.01,-0.05c0,-0.02 0.01,-0.03 0.01,-0.05l-1.57,0.16" />
					</g>
					<g id="Layer">
						<path id="yolsaU" class="shp8" d="M8.91,143.2l1.57,-0.16c0.02,-0.05 0.05,-0.1 0.07,-0.16l-1.57,0.16c-0.02,0.06 -0.04,0.11 -0.07,0.16z" />
					</g>
					<g id="Layer">
						<path id="yolsaV" class="shp7" d="M8.85,143.32l1.57,-0.16c0.02,-0.04 0.04,-0.08 0.06,-0.12l-1.57,0.16c-0.02,0.04 -0.04,0.08 -0.06,0.12z" />
					</g>
					<g id="Layer">
						<path id="yolsaW" class="shp6" d="M8.85,143.33c-0.02,0.04 -0.04,0.07 -0.07,0.1l1.57,-0.16l0.07,-0.11l-1.57,0.16" />
					</g>
					<g id="Layer">
						<path id="yolsaX" class="shp5" d="M8.76,143.45c-0.01,0.01 -0.01,0.02 -0.02,0.03c-0.01,0.01 -0.01,0.02 -0.02,0.03c-0.01,0.01 -0.02,0.02 -0.02,0.03l1.57,-0.16c0.01,-0.01 0.02,-0.02 0.02,-0.03c0.01,-0.01 0.02,-0.02 0.02,-0.03c0.01,-0.01 0.01,-0.02 0.02,-0.03c0.01,-0.01 0.01,-0.02 0.02,-0.03l-1.57,0.16c-0.01,0.01 -0.01,0.02 -0.02,0.03z" />
					</g>
					<g id="Layer">
						<path id="yolsaY" class="shp2" d="M8.63,143.59c-0.02,0.02 -0.04,0.03 -0.07,0.05c-0.02,0.01 -0.05,0.03 -0.07,0.04c-0.02,0.01 -0.05,0.02 -0.08,0.03c-0.01,0 -0.02,0 -0.03,0.01c-0.01,0 -0.02,0 -0.03,0.01c-0.01,0 -0.02,0 -0.03,0c-0.01,0 -0.02,0 -0.03,0l1.57,-0.16c0.04,0 0.07,-0.01 0.1,-0.02c0.03,-0.01 0.07,-0.02 0.1,-0.04c0.03,-0.02 0.06,-0.04 0.09,-0.06c0.03,-0.02 0.05,-0.05 0.08,-0.07l-1.57,0.16c-0.02,0.02 -0.04,0.04 -0.06,0.06z" />
					</g>
				</g>
			</g>
			<g id="Layer">
				<g id="Layer">
					<path id="yolsaZ" class="shp2" d="M37.52,176.38c-0.38,0.33 -0.78,0.63 -1.2,0.9c-2.08,1.34 -4.5,1.92 -7.03,1.81c-5.32,-0.24 -11.08,-3.51 -14.93,-9.06c-5.31,-7.64 -5.12,-16.87 0.18,-21.46l-0.81,0.71c-5.3,4.58 -5.48,13.81 -0.18,21.45c3.85,5.54 9.61,8.82 14.93,9.06c2.53,0.11 4.95,-0.46 7.03,-1.81c0.42,-0.27 0.82,-0.57 1.2,-0.9l0.81,-0.71" />
				</g>
				<g id="Layer">
					<path id="yolsba" class="shp36" d="M22.76,145.85c-2.53,-0.11 -4.95,0.46 -7.03,1.81c-6.44,4.17 -7.06,14.18 -1.38,22.36c3.85,5.54 9.61,8.82 14.93,9.06c2.53,0.11 4.95,-0.46 7.03,-1.8c6.45,-4.17 7.06,-14.18 1.38,-22.36c-3.85,-5.54 -9.61,-8.82 -14.93,-9.06z" />
				</g>
			</g>
			<g id="Layer">
				<g id="Layer">
					<g id="Layer">
						<path id="yolsbb" class="shp10" d="M126.42,132.41c0.07,0.16 0.13,0.32 0.19,0.49c0.06,0.16 0.11,0.33 0.16,0.5c0.05,0.17 0.1,0.34 0.14,0.51c0.04,0.17 0.08,0.34 0.11,0.51l0.56,1.31c-0.12,-0.69 -0.33,-1.36 -0.6,-2.01l-0.56,-1.31" />
					</g>
					<g id="Layer">
						<path id="yolsbc" class="shp11" d="M127.03,134.41c0.05,0.28 0.08,0.56 0.11,0.85c0.02,0.28 0.03,0.57 0.02,0.85c-0.01,0.28 -0.03,0.57 -0.06,0.85c-0.04,0.28 -0.09,0.56 -0.15,0.84c-0.07,0.3 -0.15,0.59 -0.25,0.88l0.56,1.31c0.02,-0.07 0.05,-0.14 0.07,-0.22c0.02,-0.07 0.04,-0.15 0.06,-0.22c0.02,-0.07 0.04,-0.15 0.06,-0.22c0.02,-0.07 0.04,-0.15 0.05,-0.22c0.06,-0.28 0.11,-0.56 0.15,-0.84c0.04,-0.28 0.06,-0.57 0.06,-0.85c0.01,-0.28 0,-0.57 -0.02,-0.85c-0.02,-0.28 -0.06,-0.57 -0.11,-0.85l-0.56,-1.31" />
					</g>
					<g id="Layer">
						<path id="yolsbd" class="shp10" d="M126.7,138.67c-0.22,0.64 -0.51,1.27 -0.86,1.85l0.56,1.31c0.09,-0.15 0.17,-0.29 0.25,-0.44c0.08,-0.15 0.16,-0.3 0.23,-0.46c0.07,-0.15 0.14,-0.31 0.2,-0.47c0.06,-0.16 0.12,-0.32 0.18,-0.48l-0.56,-1.31" />
					</g>
					<g id="Layer">
						<path id="yolsbe" class="shp9" d="M125.84,140.52c-0.28,0.46 -0.59,0.9 -0.93,1.31l0.56,1.31c0.34,-0.41 0.66,-0.85 0.93,-1.31l-0.56,-1.31" />
					</g>
					<g id="Layer">
						<path id="yolsbf" class="shp8" d="M123.83,143l0.56,1.31c0.39,-0.36 0.75,-0.75 1.09,-1.16l-0.56,-1.31c-0.34,0.41 -0.7,0.8 -1.09,1.16z" />
					</g>
					<g id="Layer">
						<path id="yolsbg" class="shp7" d="M122.47,144.11l0.56,1.31c0.47,-0.34 0.92,-0.71 1.35,-1.11l-0.56,-1.31c-0.43,0.4 -0.88,0.77 -1.35,1.12z" />
					</g>
					<g id="Layer">
						<path id="yolsbh" class="shp6" d="M122.47,144.11c-0.14,0.1 -0.29,0.2 -0.43,0.3c-0.15,0.1 -0.29,0.19 -0.44,0.29c-0.15,0.09 -0.3,0.18 -0.45,0.27c-0.15,0.09 -0.3,0.17 -0.46,0.26l0.56,1.31c0.62,-0.33 1.21,-0.71 1.78,-1.12l-0.56,-1.31" />
					</g>
					<g id="Layer">
						<path id="yolsbi" class="shp5" d="M120.69,145.23c-0.21,0.11 -0.43,0.23 -0.64,0.33c-0.22,0.11 -0.43,0.21 -0.65,0.31c-0.22,0.1 -0.44,0.19 -0.67,0.28c-0.22,0.09 -0.45,0.17 -0.68,0.26l0.56,1.31c0.91,-0.32 1.79,-0.72 2.64,-1.17l-0.56,-1.31" />
					</g>
					<g id="Layer">
						<path id="yolsbj" class="shp2" d="M118.05,146.41c-3.21,1.15 -7,1.59 -10.88,1.09c-6.77,-0.88 -11.99,-4.39 -13.85,-8.73l0.56,1.3c1.86,4.34 7.08,7.85 13.85,8.73c3.88,0.5 7.67,0.06 10.88,-1.09l-0.56,-1.31" />
					</g>
				</g>
				<g id="Layer">
					<path id="yolsbk" class="shp37" d="M126.88,135.77c0.25,-6.68 -7.28,-12.38 -16.82,-12.74c-9.54,-0.36 -17.48,4.77 -17.72,11.45c-0.25,6.68 7.28,12.38 16.82,12.74c9.54,0.36 17.48,-4.77 17.72,-11.45z" />
				</g>
			</g>
			<g id="Layer">
				<g id="Layer">
					<path id="yolsbl" class="shp38" d="M56.16,113.49c-8.17,0.66 -14.3,8.38 -13.68,17.24c0.62,8.86 7.74,15.51 15.91,14.85c8.17,-0.66 14.3,-8.37 13.68,-17.24c-0.62,-8.86 -7.74,-15.51 -15.91,-14.85z" />
				</g>
				<g id="Layer">
					<g id="Layer">
						<path id="yolsbm" class="shp9" d="M62.17,114.34c0.12,0.05 0.24,0.09 0.36,0.14c0.12,0.05 0.24,0.1 0.35,0.15c0.12,0.05 0.23,0.11 0.35,0.16c0.12,0.06 0.23,0.11 0.34,0.17l0.88,0.33c-0.46,-0.23 -0.92,-0.44 -1.4,-0.62l-0.88,-0.33" />
					</g>
					<g id="Layer">
						<path id="yolsbn" class="shp10" d="M63.57,114.97c0.14,0.07 0.27,0.14 0.41,0.22c0.14,0.07 0.27,0.15 0.4,0.23c0.13,0.08 0.26,0.16 0.4,0.24c0.13,0.08 0.26,0.17 0.39,0.26l0.88,0.33c-0.51,-0.35 -1.04,-0.67 -1.6,-0.95l-0.88,-0.33" />
					</g>
					<g id="Layer">
						<path id="yolsbo" class="shp11" d="M65.17,115.92c0.16,0.11 0.32,0.23 0.48,0.34c0.16,0.12 0.31,0.24 0.47,0.36c0.15,0.12 0.3,0.25 0.45,0.38c0.15,0.13 0.29,0.26 0.44,0.4l0.88,0.33c-0.14,-0.14 -0.29,-0.27 -0.44,-0.4c-0.15,-0.13 -0.3,-0.26 -0.45,-0.38c-0.15,-0.12 -0.31,-0.24 -0.47,-0.36c-0.16,-0.12 -0.32,-0.23 -0.48,-0.34l-0.88,-0.33" />
					</g>
					<g id="Layer">
						<path id="yolsbp" class="shp12" d="M67.01,117.41c2.51,2.37 4.28,5.64 4.88,9.39l0.88,0.33c-0.59,-3.75 -2.37,-7.03 -4.88,-9.39l-0.88,-0.33" />
					</g>
					<g id="Layer">
						<path id="yolsbq" class="shp11" d="M71.89,126.8c0.04,0.22 0.07,0.45 0.09,0.67c0.03,0.23 0.05,0.45 0.07,0.68c0.02,0.23 0.03,0.45 0.04,0.68c0.01,0.23 0.01,0.45 0.02,0.68l0.88,0.34c0,-0.39 -0.02,-0.78 -0.04,-1.17c-0.04,-0.52 -0.09,-1.04 -0.17,-1.54l-0.88,-0.33" />
					</g>
					<g id="Layer">
						<path id="yolsbr" class="shp10" d="M72.11,129.51c0,0.72 -0.04,1.45 -0.13,2.17l0.88,0.33c0.09,-0.72 0.13,-1.44 0.13,-2.17l-0.88,-0.34" />
					</g>
					<g id="Layer">
						<path id="yolsbs" class="shp9" d="M71.98,131.67c-0.08,0.65 -0.2,1.29 -0.35,1.93l0.88,0.34c0.15,-0.64 0.27,-1.28 0.35,-1.93l-0.88,-0.33" />
					</g>
					<g id="Layer">
						<path id="yolsbt" class="shp8" d="M71.63,133.6c-0.15,0.61 -0.33,1.21 -0.54,1.8l0.88,0.33c0.05,-0.15 0.1,-0.29 0.15,-0.44c0.05,-0.15 0.1,-0.3 0.14,-0.45c0.04,-0.15 0.09,-0.3 0.13,-0.45c0.04,-0.15 0.08,-0.3 0.12,-0.45l-0.88,-0.34" />
					</g>
					<g id="Layer">
						<path id="yolsbu" class="shp7" d="M70.35,137.14l0.88,0.33c0.07,-0.14 0.14,-0.28 0.2,-0.43c0.07,-0.14 0.13,-0.29 0.19,-0.43c0.06,-0.15 0.12,-0.29 0.18,-0.44c0.06,-0.15 0.11,-0.29 0.17,-0.44l-0.88,-0.33c-0.22,0.59 -0.46,1.18 -0.74,1.74z" />
					</g>
					<g id="Layer">
						<path id="yolsbv" class="shp6" d="M69.34,138.9l0.88,0.33c0.09,-0.14 0.18,-0.28 0.27,-0.43c0.09,-0.14 0.18,-0.29 0.26,-0.44c0.08,-0.15 0.17,-0.29 0.25,-0.44c0.08,-0.15 0.16,-0.3 0.23,-0.45l-0.88,-0.33c-0.3,0.61 -0.64,1.19 -1.01,1.76z" />
					</g>
					<g id="Layer">
						<path id="yolsbw" class="shp5" d="M69.33,138.9c-0.11,0.17 -0.22,0.33 -0.34,0.49c-0.12,0.16 -0.24,0.32 -0.36,0.48c-0.12,0.16 -0.25,0.31 -0.38,0.47c-0.13,0.15 -0.26,0.3 -0.39,0.45l0.88,0.33c0.13,-0.15 0.26,-0.3 0.39,-0.45c0.13,-0.15 0.25,-0.31 0.38,-0.47c0.12,-0.16 0.24,-0.32 0.36,-0.48c0.12,-0.16 0.23,-0.33 0.34,-0.49l-0.88,-0.33" />
					</g>
					<g id="Layer">
						<path id="yolsbx" class="shp2" d="M67.87,140.79c-2.43,2.69 -5.75,4.48 -9.49,4.78c-0.51,0.04 -1.02,0.05 -1.53,0.04c-0.51,-0.02 -1.02,-0.06 -1.52,-0.13c-0.51,-0.07 -1.01,-0.17 -1.5,-0.3c-0.49,-0.13 -0.98,-0.28 -1.46,-0.46l0.88,0.33c0.48,0.18 0.96,0.34 1.46,0.46c0.49,0.13 0.99,0.23 1.5,0.3c0.51,0.07 1.01,0.12 1.52,0.13c0.51,0.02 1.02,0 1.53,-0.04c3.74,-0.3 7.06,-2.09 9.49,-4.78l-0.88,-0.33" />
					</g>
				</g>
			</g>
			<g id="Layer">
				<g id="Layer">
					<g id="Layer">
						<path id="yolsby" class="shp2" d="M24.52,119.48c0.06,-0.04 0.13,-0.08 0.19,-0.12c0.07,-0.04 0.13,-0.08 0.2,-0.11c0.07,-0.04 0.14,-0.07 0.21,-0.1c0.07,-0.03 0.14,-0.06 0.21,-0.09l1.36,-0.92c-0.07,0.03 -0.14,0.06 -0.21,0.09c-0.07,0.03 -0.14,0.07 -0.21,0.1c-0.07,0.04 -0.13,0.07 -0.2,0.11c-0.07,0.04 -0.13,0.08 -0.19,0.12l-1.37,0.92" />
					</g>
					<g id="Layer">
						<path id="yolsbz" class="shp5" d="M25.33,119.05c0.04,-0.02 0.09,-0.04 0.14,-0.05c0.05,-0.02 0.09,-0.03 0.14,-0.05c0.05,-0.02 0.09,-0.03 0.14,-0.05c0.05,-0.01 0.09,-0.03 0.14,-0.04l1.37,-0.92c-0.19,0.05 -0.37,0.11 -0.56,0.19l-1.37,0.92" />
					</g>
					<g id="Layer">
						<path id="yolsbA" class="shp6" d="M25.88,118.87l0.11,-0.03l1.37,-0.92l-0.11,0.03l-1.37,0.92" />
					</g>
				</g>
				<g id="Layer">
					<path id="yolsbB" class="shp39" d="M25.99,118.84c-0.14,0.03 -0.28,0.07 -0.41,0.12c-0.14,0.05 -0.27,0.1 -0.4,0.16c-0.13,0.06 -0.26,0.13 -0.38,0.2c-0.12,0.07 -0.25,0.15 -0.36,0.23c-4.3,3.06 -2.35,13.21 4.36,22.68c5.97,8.44 13.7,13.48 18.36,12.32c0.14,-0.03 0.28,-0.07 0.41,-0.12c0.14,-0.05 0.27,-0.1 0.4,-0.16c0.13,-0.06 0.26,-0.13 0.38,-0.2c0.12,-0.07 0.25,-0.15 0.36,-0.23c4.3,-3.06 2.35,-13.21 -4.36,-22.68c-5.97,-8.43 -13.7,-13.48 -18.36,-12.32z" />
				</g>
				<g id="Layer">
					<g id="Layer">
						<path id="yolsbC" class="shp6" d="M26.08,118.82c0.03,-0.01 0.06,-0.01 0.1,-0.02c0.03,-0.01 0.06,-0.01 0.1,-0.02c0.03,-0.01 0.06,-0.01 0.1,-0.02l1.37,-0.92c-0.13,0.02 -0.26,0.05 -0.38,0.08l-1.37,0.92c0.03,-0.01 0.06,-0.02 0.09,-0.02z" />
					</g>
					<g id="Layer">
						<path id="yolsbD" class="shp7" d="M26.37,118.75c0.04,-0.01 0.08,-0.01 0.12,-0.02c0.04,-0.01 0.08,-0.01 0.12,-0.02c0.04,-0.01 0.08,-0.01 0.12,-0.01c0.04,0 0.08,-0.01 0.12,-0.01l1.36,-0.92c-0.17,0.01 -0.33,0.03 -0.5,0.06l-1.37,0.92" />
					</g>
					<g id="Layer">
						<path id="yolsbE" class="shp8" d="M27.37,118.67l1.37,-0.92c-0.17,0 -0.34,0.01 -0.5,0.02l-1.37,0.92c0.16,-0.02 0.33,-0.02 0.5,-0.02z" />
					</g>
					<g id="Layer">
						<path id="yolsbF" class="shp9" d="M27.37,118.67c0.05,0 0.09,0 0.14,0c0.05,0 0.09,0 0.14,0c0.05,0 0.09,0 0.14,0.01c0.05,0 0.09,0 0.14,0.01l1.37,-0.92c-0.18,-0.02 -0.37,-0.02 -0.54,-0.02l-1.37,0.92" />
					</g>
					<g id="Layer">
						<path id="yolsbG" class="shp10" d="M27.91,118.69c0.19,0.01 0.39,0.03 0.59,0.06l1.37,-0.92c-0.2,-0.03 -0.4,-0.05 -0.59,-0.06l-1.37,0.92" />
					</g>
					<g id="Layer">
						<path id="yolsbH" class="shp11" d="M28.5,118.75c0.06,0.01 0.11,0.02 0.17,0.02c0.06,0.01 0.11,0.02 0.17,0.03c0.06,0.01 0.11,0.02 0.16,0.03c0.05,0.01 0.11,0.02 0.16,0.03l1.37,-0.92c-0.22,-0.05 -0.44,-0.09 -0.66,-0.12l-1.37,0.92" />
					</g>
					<g id="Layer">
						<path id="yolsbI" class="shp12" d="M29.16,118.87c0.06,0.01 0.13,0.03 0.19,0.05c0.06,0.02 0.13,0.03 0.19,0.05c0.06,0.02 0.13,0.03 0.19,0.05c0.06,0.02 0.13,0.04 0.19,0.05l1.36,-0.92c-0.26,-0.08 -0.52,-0.14 -0.77,-0.2l-1.37,0.92" />
					</g>
					<g id="Layer">
						<path id="yolsbJ" class="shp14" d="M29.93,119.07c0.31,0.09 0.62,0.19 0.93,0.31l1.37,-0.92c-0.32,-0.12 -0.63,-0.22 -0.93,-0.31l-1.37,0.92" />
					</g>
					<g id="Layer">
						<path id="yolsbK" class="shp15" d="M30.87,119.39c0.1,0.04 0.2,0.08 0.3,0.12c0.1,0.04 0.2,0.08 0.3,0.13c0.1,0.04 0.2,0.09 0.3,0.13c0.1,0.04 0.2,0.09 0.3,0.14l1.37,-0.92c-0.41,-0.2 -0.8,-0.37 -1.2,-0.52l-1.37,0.92" />
					</g>
					<g id="Layer">
						<path id="yolsbL" class="shp16" d="M32.06,119.9c0.14,0.06 0.27,0.13 0.4,0.2c0.13,0.07 0.27,0.14 0.4,0.21c0.13,0.07 0.26,0.14 0.39,0.22c0.13,0.07 0.26,0.15 0.39,0.23l1.37,-0.92c-0.54,-0.32 -1.07,-0.6 -1.59,-0.85l-1.37,0.92" />
					</g>
					<g id="Layer">
						<path id="yolsbM" class="shp17" d="M33.65,120.75c0.21,0.13 0.42,0.26 0.63,0.39c0.21,0.13 0.42,0.27 0.62,0.41c0.21,0.14 0.41,0.28 0.61,0.43c0.2,0.15 0.4,0.29 0.6,0.45l1.37,-0.92c-0.79,-0.61 -1.61,-1.17 -2.47,-1.68l-1.37,0.92" />
					</g>
					<g id="Layer">
						<path id="yolsbN" class="shp18" d="M36.12,122.43c2.81,2.15 5.68,5.13 8.23,8.73c0.42,0.6 0.83,1.2 1.23,1.82c0.39,0.62 0.77,1.24 1.13,1.88c0.36,0.64 0.71,1.28 1.04,1.93c0.33,0.65 0.64,1.31 0.94,1.98l1.37,-0.92c-0.3,-0.67 -0.61,-1.33 -0.94,-1.98c-0.33,-0.65 -0.68,-1.3 -1.04,-1.93c-0.36,-0.64 -0.74,-1.26 -1.13,-1.88c-0.39,-0.62 -0.8,-1.22 -1.23,-1.82c-2.55,-3.6 -5.42,-6.58 -8.23,-8.73l-1.37,0.92" />
					</g>
					<g id="Layer">
						<path id="yolsbO" class="shp17" d="M48.69,138.77c0.13,0.29 0.25,0.57 0.36,0.86c0.12,0.29 0.23,0.58 0.34,0.87c0.11,0.29 0.21,0.59 0.31,0.88c0.1,0.3 0.2,0.59 0.29,0.89l1.37,-0.92c-0.37,-1.19 -0.81,-2.37 -1.31,-3.51l-1.37,0.92" />
					</g>
					<g id="Layer">
						<path id="yolsbP" class="shp16" d="M50,142.29c0.06,0.18 0.11,0.37 0.16,0.56c0.05,0.19 0.1,0.37 0.15,0.56c0.05,0.19 0.09,0.37 0.14,0.56c0.04,0.19 0.09,0.38 0.13,0.57l1.37,-0.92c-0.15,-0.73 -0.35,-1.47 -0.58,-2.24l-1.37,0.92" />
					</g>
					<g id="Layer">
						<path id="yolsbQ" class="shp15" d="M50.58,144.53c0.03,0.14 0.06,0.27 0.08,0.41c0.03,0.14 0.05,0.27 0.07,0.41c0.02,0.14 0.05,0.28 0.07,0.41c0.02,0.14 0.04,0.28 0.06,0.41l1.37,-0.92c-0.07,-0.53 -0.16,-1.09 -0.28,-1.65l-1.37,0.92" />
					</g>
					<g id="Layer">
						<path id="yolsbR" class="shp14" d="M50.86,146.18c0.01,0.1 0.02,0.21 0.04,0.31c0.01,0.1 0.02,0.21 0.03,0.31c0.01,0.1 0.02,0.21 0.02,0.31c0.01,0.1 0.01,0.21 0.02,0.31l1.37,-0.92c-0.02,-0.4 -0.06,-0.82 -0.11,-1.25l-1.37,0.92" />
					</g>
					<g id="Layer">
						<path id="yolsbS" class="shp12" d="M50.97,147.44c0.02,0.35 0.02,0.68 0.02,1.01l1.37,-0.93c0.01,-0.33 0,-0.66 -0.02,-1.01l-1.37,0.92" />
					</g>
					<g id="Layer">
						<path id="yolsbT" class="shp11" d="M50.99,148.44c-0.01,0.28 -0.02,0.56 -0.05,0.83l1.37,-0.92c0.02,-0.27 0.04,-0.55 0.05,-0.83l-1.37,0.92" />
					</g>
					<g id="Layer">
						<path id="yolsbU" class="shp10" d="M50.94,149.28c-0.02,0.24 -0.05,0.48 -0.09,0.71l1.37,-0.93c0.04,-0.23 0.07,-0.47 0.09,-0.71l-1.37,0.92" />
					</g>
					<g id="Layer">
						<path id="yolsbV" class="shp9" d="M50.85,149.98c-0.04,0.22 -0.08,0.43 -0.13,0.63l1.37,-0.92c0.05,-0.2 0.09,-0.41 0.13,-0.63l-1.37,0.92" />
					</g>
					<g id="Layer">
						<path id="yolsbW" class="shp8" d="M50.72,150.61c-0.05,0.19 -0.1,0.39 -0.16,0.57l1.37,-0.92c0.06,-0.18 0.11,-0.37 0.16,-0.57l-1.37,0.92" />
					</g>
					<g id="Layer">
						<path id="yolsbX" class="shp7" d="M50.56,151.18c-0.06,0.18 -0.13,0.36 -0.2,0.53l1.37,-0.92c0.07,-0.17 0.14,-0.35 0.2,-0.53l-1.37,0.92" />
					</g>
					<g id="Layer">
						<path id="yolsbY" class="shp6" d="M50.36,151.71c-0.07,0.18 -0.16,0.35 -0.25,0.52l1.37,-0.92c0.1,-0.17 0.18,-0.34 0.25,-0.52l-1.37,0.92" />
					</g>
					<g id="Layer">
						<path id="yolsbZ" class="shp5" d="M50.11,152.23c-0.1,0.18 -0.21,0.36 -0.33,0.53l1.37,-0.92c0.12,-0.17 0.23,-0.35 0.33,-0.53l-1.37,0.92" />
					</g>
					<g id="Layer">
						<path id="yolsca" class="shp2" d="M49.78,152.76c-0.07,0.1 -0.15,0.21 -0.23,0.3c-0.08,0.1 -0.17,0.19 -0.26,0.28c-0.09,0.09 -0.18,0.18 -0.28,0.26c-0.1,0.08 -0.2,0.16 -0.3,0.24l-0.09,0.06l1.37,-0.92l0.09,-0.06c0.1,-0.07 0.2,-0.15 0.3,-0.24c0.1,-0.08 0.19,-0.17 0.28,-0.26c0.09,-0.09 0.18,-0.18 0.26,-0.28c0.08,-0.1 0.16,-0.2 0.23,-0.3l-1.37,0.92" />
					</g>
				</g>
			</g>
			<g id="Layer">
				<g id="Layer">
					<g id="Layer">
						<path id="yolscb" class="shp5" d="M62.29,196.48c0.03,-0.01 0.06,-0.02 0.1,-0.03c0.03,-0.01 0.06,-0.02 0.1,-0.02c0.03,-0.01 0.06,-0.01 0.1,-0.02l1.56,-0.47c-0.03,0.01 -0.06,0.01 -0.1,0.02c-0.03,0.01 -0.06,0.01 -0.1,0.02c-0.03,0.01 -0.06,0.02 -0.1,0.03c-0.03,0.01 -0.06,0.02 -0.1,0.03l-1.56,0.47c0.03,-0.01 0.06,-0.02 0.1,-0.03z" />
					</g>
					<g id="Layer">
						<path id="yolscc" class="shp6" d="M62.65,196.4c0.03,0 0.05,-0.01 0.08,-0.01c0.03,0 0.05,-0.01 0.08,-0.01c0.03,0 0.05,-0.01 0.08,-0.01l1.56,-0.47c-0.11,0.01 -0.21,0.02 -0.32,0.04l-1.56,0.47c0.03,-0.01 0.05,-0.01 0.08,-0.01z" />
					</g>
					<g id="Layer">
						<path id="yolscd" class="shp7" d="M62.95,196.37c0.02,0 0.04,0 0.06,0c0.02,0 0.04,0 0.06,0c0.02,0 0.04,0 0.06,0l1.56,-0.47c-0.08,0 -0.17,0 -0.25,0.01l-1.56,0.47c0.02,0 0.04,0 0.06,0z" />
					</g>
					<g id="Layer">
						<path id="yolsce" class="shp8" d="M63.14,196.36c0.01,0 0.03,0 0.04,0c0.01,0 0.03,0 0.04,0c0.01,0 0.03,0 0.04,0c0.01,0 0.03,0 0.04,0l1.56,-0.47c-0.06,-0.01 -0.11,-0.01 -0.17,-0.01l-1.56,0.47" />
					</g>
				</g>
				<g id="Layer">
					<path id="yolscf" class="shp40" d="M63.31,196.38c-3.61,-0.25 -8.86,6.96 -12.12,16.91c-3.48,10.61 -3.37,20.31 0.23,21.67c0.06,0.02 0.11,0.04 0.17,0.06c0.06,0.02 0.12,0.03 0.17,0.04c0.06,0.01 0.12,0.02 0.18,0.03c0.06,0.01 0.12,0.01 0.18,0.02c3.61,0.25 8.86,-6.96 12.11,-16.91c3.48,-10.61 3.38,-20.31 -0.23,-21.67c-0.22,-0.08 -0.46,-0.13 -0.7,-0.15z" />
				</g>
				<g id="Layer">
					<g id="Layer">
						<path id="yolscg" class="shp8" d="M63.31,196.37h0.06l1.56,-0.47h-0.06l-1.56,0.47" />
					</g>
					<g id="Layer">
						<path id="yolsch" class="shp9" d="M63.37,196.37c0.02,0 0.03,0 0.05,0.01c0.02,0 0.03,0 0.05,0.01c0.02,0 0.03,0 0.05,0.01c0.02,0 0.03,0.01 0.05,0.01l1.56,-0.47c-0.06,-0.01 -0.13,-0.02 -0.19,-0.03l-1.56,0.47" />
					</g>
					<g id="Layer">
						<path id="yolsci" class="shp10" d="M63.57,196.4c0.02,0 0.03,0.01 0.05,0.01c0.02,0 0.03,0.01 0.05,0.01c0.02,0 0.03,0.01 0.05,0.01c0.02,0 0.03,0.01 0.05,0.01l1.56,-0.47c-0.06,-0.02 -0.12,-0.03 -0.18,-0.04l-1.56,0.47" />
					</g>
					<g id="Layer">
						<path id="yolscj" class="shp11" d="M63.75,196.44c0.01,0 0.03,0.01 0.04,0.01c0.01,0 0.03,0.01 0.04,0.01c0.01,0 0.03,0.01 0.04,0.01c0.01,0 0.03,0.01 0.04,0.01l1.56,-0.47c-0.06,-0.02 -0.12,-0.04 -0.18,-0.05l-1.56,0.47" />
					</g>
					<g id="Layer">
						<path id="yolsck" class="shp12" d="M63.92,196.49c0.01,0 0.01,0 0.02,0.01c0.01,0 0.01,0 0.02,0.01c0.01,0 0.01,0.01 0.02,0.01c0.01,0 0.01,0.01 0.02,0.01l0.11,0.04l1.56,-0.47l-0.1,-0.04c-0.03,-0.01 -0.06,-0.02 -0.08,-0.03l-1.56,0.47" />
					</g>
					<g id="Layer">
						<path id="yolscl" class="shp14" d="M64.17,196.59c0.02,0.01 0.03,0.02 0.05,0.02c0.02,0.01 0.03,0.02 0.05,0.02c0.02,0.01 0.03,0.02 0.05,0.03l1.56,-0.47c-0.06,-0.03 -0.13,-0.06 -0.19,-0.09l-1.56,0.47c0.02,0.01 0.03,0.01 0.05,0.02z" />
					</g>
					<g id="Layer">
						<path id="yolscm" class="shp15" d="M64.31,196.66c0.02,0.01 0.03,0.02 0.05,0.03c0.02,0.01 0.03,0.02 0.05,0.03c0.02,0.01 0.03,0.02 0.05,0.03c0.02,0.01 0.03,0.02 0.05,0.03l1.56,-0.47c-0.06,-0.04 -0.12,-0.08 -0.19,-0.11l-1.56,0.47" />
					</g>
					<g id="Layer">
						<path id="yolscn" class="shp16" d="M64.49,196.78c0.02,0.01 0.05,0.03 0.07,0.05c0.02,0.02 0.04,0.03 0.07,0.05c0.02,0.02 0.04,0.03 0.07,0.05c0.02,0.02 0.04,0.03 0.06,0.05l1.56,-0.47c-0.08,-0.07 -0.17,-0.14 -0.27,-0.2l-1.56,0.47" />
					</g>
					<g id="Layer">
						<path id="yolsco" class="shp17" d="M64.76,196.96c0.03,0.02 0.06,0.05 0.09,0.08c0.03,0.03 0.06,0.05 0.08,0.08c0.03,0.03 0.05,0.05 0.08,0.08c0.03,0.03 0.05,0.06 0.08,0.08l1.56,-0.47c-0.1,-0.11 -0.21,-0.22 -0.33,-0.32l-1.56,0.47" />
					</g>
					<g id="Layer">
						<path id="yolscp" class="shp18" d="M65.09,197.28c0.09,0.11 0.18,0.22 0.26,0.33c0.08,0.11 0.16,0.23 0.23,0.35c0.07,0.12 0.14,0.25 0.2,0.37c0.06,0.13 0.12,0.26 0.17,0.39l1.56,-0.47c-0.2,-0.53 -0.5,-1.02 -0.87,-1.45l-1.56,0.47" />
					</g>
					<g id="Layer">
						<path id="yolscq" class="shp17" d="M66.35,199.97l1.56,-0.47c-0.1,-0.42 -0.23,-0.83 -0.39,-1.23l-1.56,0.47c0.16,0.4 0.29,0.81 0.39,1.23z" />
					</g>
					<g id="Layer">
						<path id="yolscr" class="shp16" d="M66.6,201.29l1.56,-0.47c-0.06,-0.44 -0.14,-0.88 -0.25,-1.32l-1.56,0.47c0.11,0.44 0.19,0.88 0.25,1.32z" />
					</g>
					<g id="Layer">
						<path id="yolscs" class="shp15" d="M66.65,201.68c0.02,0.13 0.03,0.26 0.04,0.4c0.01,0.13 0.02,0.26 0.03,0.4c0.01,0.13 0.02,0.26 0.02,0.4l1.56,-0.47c-0.03,-0.56 -0.08,-1.09 -0.15,-1.58l-1.56,0.47c0.02,0.13 0.03,0.26 0.05,0.39z" />
					</g>
					<g id="Layer">
						<path id="yolsct" class="shp14" d="M66.75,202.87c0.04,0.63 0.04,1.29 0.03,1.99l1.56,-0.47c0.02,-0.7 0.01,-1.36 -0.03,-1.99l-1.56,0.47" />
					</g>
					<g id="Layer">
						<path id="yolscu" class="shp12" d="M66.62,207.36l1.56,-0.47c0.09,-0.87 0.14,-1.71 0.16,-2.5l-1.56,0.47c-0.02,0.8 -0.07,1.63 -0.16,2.5z" />
					</g>
					<g id="Layer">
						<path id="yolscv" class="shp11" d="M66.61,207.36c-0.1,0.99 -0.24,2.02 -0.42,3.09l1.56,-0.47c0.18,-1.07 0.33,-2.1 0.42,-3.09l-1.56,0.47" />
					</g>
					<g id="Layer">
						<path id="yolscw" class="shp10" d="M66.19,210.45c-0.21,1.19 -0.47,2.42 -0.78,3.68l1.56,-0.47c0.08,-0.3 0.15,-0.61 0.22,-0.92c0.07,-0.31 0.14,-0.61 0.2,-0.92c0.06,-0.31 0.13,-0.61 0.19,-0.92c0.06,-0.31 0.12,-0.62 0.17,-0.93l-1.56,0.47" />
					</g>
					<g id="Layer">
						<path id="yolscx" class="shp9" d="M65.42,214.13c-0.09,0.34 -0.17,0.68 -0.27,1.03c-0.09,0.34 -0.19,0.68 -0.28,1.02c-0.1,0.34 -0.2,0.68 -0.3,1.01c-0.1,0.34 -0.21,0.67 -0.32,1.01l-0.03,0.08l1.56,-0.47l0.03,-0.08c0.45,-1.38 0.84,-2.74 1.17,-4.07l-1.56,0.47" />
					</g>
					<g id="Layer">
						<path id="yolscy" class="shp8" d="M64.22,218.27c-0.12,0.35 -0.24,0.71 -0.36,1.06c-0.12,0.35 -0.25,0.7 -0.38,1.05c-0.13,0.35 -0.26,0.7 -0.4,1.04c-0.14,0.35 -0.28,0.69 -0.42,1.03l1.56,-0.47c0.14,-0.34 0.28,-0.69 0.42,-1.03c0.14,-0.35 0.27,-0.69 0.4,-1.04c0.13,-0.35 0.26,-0.7 0.38,-1.05c0.12,-0.35 0.24,-0.7 0.36,-1.06l-1.56,0.47" />
					</g>
					<g id="Layer">
						<path id="yolscz" class="shp7" d="M62.66,222.46c-0.13,0.32 -0.27,0.64 -0.41,0.95c-0.14,0.32 -0.28,0.63 -0.43,0.94c-0.15,0.31 -0.3,0.62 -0.45,0.93c-0.15,0.31 -0.31,0.62 -0.47,0.92l1.56,-0.48c0.16,-0.31 0.31,-0.61 0.47,-0.92c0.15,-0.31 0.3,-0.62 0.45,-0.93c0.15,-0.31 0.29,-0.63 0.43,-0.94c0.14,-0.32 0.28,-0.63 0.41,-0.95l-1.56,0.47" />
					</g>
					<g id="Layer">
						<path id="yolscA" class="shp6" d="M60.91,226.21c-0.14,0.27 -0.28,0.53 -0.43,0.8c-0.15,0.26 -0.29,0.53 -0.44,0.79c-0.15,0.26 -0.31,0.52 -0.46,0.78c-0.16,0.26 -0.32,0.51 -0.48,0.77l1.56,-0.47c0.16,-0.25 0.32,-0.51 0.48,-0.77c0.16,-0.26 0.31,-0.52 0.46,-0.78c0.15,-0.26 0.3,-0.52 0.44,-0.79c0.15,-0.26 0.29,-0.53 0.43,-0.8l-1.56,0.47" />
					</g>
					<g id="Layer">
						<path id="yolscB" class="shp5" d="M59.09,229.34c-0.14,0.22 -0.28,0.43 -0.43,0.64c-0.15,0.21 -0.29,0.42 -0.45,0.63c-0.15,0.21 -0.31,0.41 -0.47,0.62c-0.16,0.2 -0.32,0.4 -0.48,0.6l1.56,-0.47c0.16,-0.2 0.33,-0.4 0.48,-0.6c0.16,-0.2 0.31,-0.41 0.47,-0.62c0.15,-0.21 0.3,-0.42 0.45,-0.63c0.15,-0.21 0.29,-0.43 0.43,-0.64l-1.56,0.47" />
					</g>
					<g id="Layer">
						<path id="yolscC" class="shp2" d="M53.25,234.97l1.56,-0.47c1.25,-0.38 2.63,-1.48 4.02,-3.14l-1.56,0.47c-1.39,1.66 -2.77,2.76 -4.02,3.14z" />
					</g>
				</g>
			</g>
		</g>
	</g>
</svg>