<?xml version="1.0" encoding="UTF-8"?>
<svg width="1440px" height="549px" viewBox="0 0 1440 549" version="1.1" xmlns="http://www.w3.org/2000/svg" xmlns:xlink="http://www.w3.org/1999/xlink">
    <!-- Generator: Sketch 53 (72520) - https://sketchapp.com -->
    <title>Group 2</title>
    <desc>Created with Sketch.</desc>
    <defs>
        <linearGradient x1="47.255146%" y1="98.1821506%" x2="47.255146%" y2="36.1908755%" id="linearGradient-1">
            <stop stop-color="#FFFFFF" stop-opacity="0" offset="0%"></stop>
            <stop stop-color="#E8EBF2" offset="100%"></stop>
        </linearGradient>
        <linearGradient x1="50%" y1="0%" x2="50%" y2="100%" id="linearGradient-2">
            <stop stop-color="#0FA3B1" offset="0%"></stop>
            <stop stop-color="#0E9CA9" offset="41.7688779%"></stop>
            <stop stop-color="#0C919E" offset="100%"></stop>
        </linearGradient>
        <linearGradient x1="50%" y1="0%" x2="50%" y2="100%" id="linearGradient-3">
            <stop stop-color="#0FA3B1" offset="0%"></stop>
            <stop stop-color="#0E9CA9" offset="41.7688779%"></stop>
            <stop stop-color="#0C919E" offset="100%"></stop>
        </linearGradient>
    </defs>
    <g id="Web-Interface---AR" stroke="none" stroke-width="1" fill="none" fill-rule="evenodd">
        <g id="404" transform="translate(0.000000, -80.000000)">
            <g id="Group-2" transform="translate(0.000000, 16.259065)">
                <text id="404" font-family="ArialMT, Arial" font-size="338" font-weight="normal" fill="#E8EBF2">
                    <tspan x="438.030762" y="306">404</tspan>
                </text>
                <path d="M1440,247.740935 C1202,205.074268 987,205.074268 795,247.740935 C603,290.407602 338,260.407602 0,157.740935 L0,620.740935 L1440,620.740935 L1440,247.740935 Z" id="Path-5" fill="url(#linearGradient-1)" fill-rule="nonzero"></path>
                <g id="Asset-4" transform="translate(605.000000, 204.300370)" fill-rule="nonzero">
                    <path d="M208.878774,61.071312 C200.806509,58.8559296 193.164256,54.7082112 185.619981,51.1973472 C175.59905,46.5270816 165.779517,41.4649056 156.117837,36.0979104 C152.87369,34.2835104 149.656758,32.4092352 146.467043,30.4750848 C137.60007,25.118976 127.95472,23.7418464 118.401904,28.0528608 C108.849088,32.3638752 100.782266,39.8047296 92.1058048,45.63984 C81.4371328,52.8411936 70.6868128,57.4352544 57.8789632,59.1335328 C49.7141632,60.2221728 41.4187264,60.7664928 33.487984,62.9818752 C30.5867584,63.7983552 27.4242592,65.1591552 26.3519488,67.9515168 C25.1762176,71.032368 27.201088,74.5922208 30.0478816,76.25784 C35.5509568,79.5128736 43.4599264,78.7290528 49.57264,78.84336 C57.029824,79.0120992 64.487008,78.7236096 71.9387488,78.3915744 C90.5490496,77.564208 108.952509,75.795168 127.551923,77.1614112 C146.18944,79.2298272 165.284186,79.3386912 183.992464,78.0432096 C190.856339,77.5750944 198.095795,77.1886272 204.769158,75.414144 C209.177663,74.2539629 213.255313,72.0828191 216.67888,69.072816 C217.821952,68.09304 218.85616,66.8302176 219.003126,65.3333376 C219.40048,61.3271424 212.939402,61.96944 210.261347,61.42512 C209.798675,61.3325856 209.336003,61.1965056 208.878774,61.071312 Z" id="Shape" fill="#657399"></path>
                    <path d="M207.196826,61.5666432 C200.822838,59.9663424 195.020387,56.907264 189.098186,53.9788224 C174.586614,46.8155712 159.802883,40.0768896 145.91728,31.7651232 C137.534752,26.72472 128.401062,25.4346816 119.332691,29.4898656 C110.26432,33.5450496 102.62751,40.5395616 94.4028352,46.04808 C88.728342,49.9333964 82.6645536,53.2170363 76.3096384,55.84584 C69.7777984,58.4694624 62.8594912,59.901024 55.886752,60.7828224 C48.4350112,61.7299392 41.0703616,62.704272 33.7383712,64.2501408 C31.1800672,64.7944608 28.48024,66.1661472 27.7508512,68.6700192 C27.3367595,70.0762602 27.5343649,71.5918936 28.2951712,72.8449536 C32.1054112,78.9413376 43.2694144,77.972448 49.8066976,78.1194144 C56.8828576,78.2772672 68.2482592,77.1995136 75.3080896,76.883808 C92.9603872,76.1054304 110.405843,74.4398112 128.036368,75.7244064 C145.704995,77.673072 165.986358,78.29904 183.720304,77.0960928 C190.224928,76.6551936 197.088803,76.2959424 203.413802,74.6303232 C207.768362,73.4872512 212.427741,71.5168128 215.802525,68.6428032 C216.891165,67.7229024 217.88727,67.0098432 218.02335,65.5782816 C218.290067,62.8566816 214.605021,62.6171808 212.71623,62.6062944 C210.82744,62.595408 208.993082,62.0184288 207.196826,61.5666432 Z" id="Shape" fill="#657399"></path>
                    <path d="M198.264534,61.5775296 C195.798765,61.0332096 193.365654,60.3745824 190.916214,59.6996256 C186.463677,58.4640192 182.016582,57.2719584 177.798102,55.3450656 C173.204042,53.233104 168.544662,51.3933024 164.010477,49.0908288 C156.80368,45.394896 148.970915,40.822608 142.030835,36.6640032 C135.243165,32.5979328 127.878515,31.5528384 120.535638,34.8242016 C113.192762,38.0955648 107.041946,44.8451328 100.395798,49.2976704 C97.20064,51.436848 93.9837088,53.695776 90.4292992,55.1436672 C86.8282898,56.6124541 83.1548154,57.8968984 79.4231488,58.9920096 C73.3282725,60.7741879 67.0962891,62.0486222 60.7910752,62.8022496 C54.6783616,63.5697408 48.6146368,64.8107904 42.550912,65.77968 C40.346416,66.1389312 37.978624,67.2275712 37.2655648,69.344976 C36.7877392,71.0510113 37.2998445,71.7925183 38.5937056,73.0028064 C39.8871209,74.1878652 41.541797,74.9030381 43.2911872,75.03312 C49.8829024,75.7026336 57.19312,74.3091744 63.7957216,73.998912 C70.8446656,73.6668768 77.87728,73.40016 84.95344,73.100784 C99.214624,72.4693728 113.312512,71.1249024 127.557366,72.1645536 C140.675478,73.6124448 153.897011,73.7975136 167.085885,73.5199104 C174.162045,73.372944 181.238205,73.5852288 188.249046,72.9755904 C191.762958,72.6698558 195.246813,72.0837528 198.667331,71.22288 C201.339942,70.54248 204.85625,69.58992 204.916125,66.1824768 C204.943341,64.5876192 204.458896,64.201152 203.141642,63.303024 C201.771098,62.4759563 200.253668,61.9214752 198.672774,61.670064 L198.264534,61.5775296 Z" id="Shape" fill="#5A678C"></path>
                    <path d="M185.65264,51.164688 C193.202358,54.6809952 200.839168,58.8287136 208.911434,61.0386528 C209.372291,61.162032 209.834963,61.2817824 210.29945,61.397904 C212.112035,61.8442464 215.916832,61.6101888 217.865498,62.8457952 L217.958032,62.9002272 L217.985248,62.9002272 C218.2107,63.0469575 218.4095,63.231032 218.573114,63.4445472 C217.776872,62.3546287 216.748828,61.4548575 215.563024,60.8100384 C213.598029,59.6887392 211.437078,58.9539072 209.472083,57.8271648 C206.170587,56.0284218 203.210026,53.6647631 200.724861,50.8435392 C198.003261,47.5776192 196.511824,43.0652064 192.102832,41.747952 C189.125402,40.8552672 186.964451,40.87704 183.938032,41.4594624 C181.216432,42.0582144 178.494832,42.4936704 175.773232,43.0162176 C173.851782,43.380912 172.115402,43.7456064 170.330032,43.6367424 C175.363178,46.2458496 180.470714,48.7551648 185.65264,51.164688 Z" id="Shape" fill="#A0ADCB"></path>
                    <path d="M26.16688,68.50128 C26.16688,68.50128 26.2703008,68.1583584 26.357392,67.9243008 C27.446032,65.1210528 30.5922016,63.7820256 33.4825408,62.9709888 C41.4132832,60.7392768 49.7032768,60.2058432 57.87352,59.1226464 C70.4255392,57.4570272 81.0016768,53.0044896 91.4471776,46.0589664 C87.3538912,48.36144 81.5024512,47.2238112 77.0009248,47.2728 C67.7474848,47.4197664 58.5375904,48.6662592 49.2841504,48.6227136 C40.8145312,48.5864256 32.3521696,48.4539744 23.8970656,48.22536 C22.3403104,48.1818144 20.5222816,48.252576 19.5969376,49.5099552 C18.6715936,50.7673344 19.1288224,52.4928288 19.8745408,53.8209696 C21.0666016,55.98192 22.0627072,58.1156544 23.1132448,60.33648 C23.2057792,60.5324352 23.3037568,60.7283904 23.4017344,60.9189024 C23.499712,61.1094144 23.6249056,61.3489152 23.7392128,61.5612 L24.098464,62.2416 L24.4740448,62.9546592 C24.5992384,63.1996032 24.724432,63.4445472 24.8441824,63.6894912 C24.9639328,63.9344352 25.0836832,64.1848224 25.1979904,64.4352096 C25.3122976,64.6855968 25.4211616,64.935984 25.5245824,65.1863712 C25.6280032,65.4367584 25.7150944,65.6762592 25.7967424,65.9212032 C25.8783904,66.1661472 25.949152,66.4002048 26.0144704,66.6397056 C26.0797888,66.8792064 26.1178912,67.0969344 26.1505504,67.3255488 C26.1804155,67.5675797 26.1967704,67.8110868 26.1995392,68.0549376 C26.1995392,68.1910176 26.16688,68.3652 26.16688,68.50128 Z" id="Shape" fill="#A0ADCB"></path>
                    <ellipse id="Oval" fill="#E59516" cx="112.665565" cy="83.161217" rx="8.8887456" ry="3.6306144"></ellipse>
                    <ellipse id="Oval" fill="#84560C" cx="171.000339" cy="93.775457" rx="10.06992" ry="3.53808"></ellipse>
                    <ellipse id="Oval-Copy" fill="#F9A218" cx="55.2636453" cy="86.7918314" rx="7.048944" ry="2.476656"></ellipse>
                    <ellipse id="Oval" fill="#E59516" cx="124.009193" cy="92.686817" rx="9.3459744" ry="3.3584544"></ellipse>
                    <ellipse id="Oval" fill="#84560C" cx="135.254845" cy="96.2738858" rx="9.8902944" ry="3.5816256"></ellipse>
                    <path d="M57.3644974,18.5662992 C57.4620396,18.7404816 57.7616333,19.1306501 57.5386798,19.3710219 C57.3157263,19.6113936 56.9360087,19.1480684 56.8175647,18.9843369 L55.2743086,16.8523444 C54.8074998,16.2287714 54.2292142,15.6051984 53.9156859,14.8875669 C53.8564639,14.7551883 53.330433,13.9574329 53.6335104,13.9574329 C53.765889,13.9574329 53.9853589,14.2047719 54.0794174,14.2848958 C54.2884362,14.4660455 54.4904878,14.6576461 54.6925394,14.8492468 C55.6818954,15.7793808 57.3644974,18.5662992 57.3644974,18.5662992 Z M119.306259,1.40242594 C119.31671,1.50345174 119.320193,1.60099388 119.313226,1.70201967 C119.341095,2.68789206 119.365481,3.67376444 119.341095,4.66312047 C119.36849,5.5241361 119.317183,6.38585434 119.187815,7.23753634 C119.128593,7.51274454 119.024083,7.51622818 118.884737,7.28979106 C118.790668,7.00251417 118.757448,6.69879651 118.787195,6.39797718 C118.672235,4.45061794 118.630431,2.49280777 118.550307,0.541964888 C118.521402,0.383643724 118.560614,0.220474227 118.6583,0.0925742957 C119.125109,-0.36726724 119.306259,1.20734166 119.306259,1.40242594 Z M171.807148,15.7928677 C171.911848,15.4583049 172.03829,15.1308067 172.151415,14.7949751 C172.664126,13.4471749 173.174845,12.1013981 173.683571,10.7576446 C174.381718,8.91722348 174.114659,10.2446831 174.047478,10.7597018 C174.036033,10.827675 174.020856,10.8949667 174.002015,10.9612716 C173.769536,11.9233724 173.421189,12.8598441 173.083621,13.7877994 C172.736369,14.8664787 172.28378,15.9083568 171.7324,16.8983636 C171.701421,16.9443865 171.64399,16.9978397 171.598058,16.9789094 C171.552127,16.9599791 171.541976,16.8925796 171.557282,16.8454708 C171.609213,16.4878917 171.69283,16.1356373 171.807148,15.7928677 Z M6.09488122,32.521091 C5.76031846,32.4163913 5.43282028,32.2899491 5.09698862,32.1768244 C3.74918844,31.6641129 2.40341162,31.1533943 1.05965816,30.6446685 C-0.780762965,29.9465213 0.546696634,30.2135798 1.06171534,30.2807615 C1.12968852,30.2922058 1.19698024,30.3073829 1.26328517,30.3262239 C2.22538593,30.5587029 3.16185765,30.9070505 4.08981297,31.2446184 C5.16849229,31.5918705 6.21037041,32.0444597 7.20037718,32.5958395 C7.24640002,32.6268185 7.29985329,32.6842497 7.28092296,32.7301811 C7.26199263,32.7761125 7.19459315,32.7862636 7.14748435,32.7709571 C6.78990522,32.7190267 6.43765088,32.6354088 6.09488122,32.521091 Z M223.659208,42.6289515 C223.996819,42.5345442 224.340348,42.4622193 224.683612,42.3741865 C226.093215,42.070118 227.500036,41.7654801 228.904074,41.4602729 C230.82782,41.0434232 229.569068,41.5424354 229.100547,41.7665914 C229.037307,41.7940142 228.972605,41.8179353 228.906736,41.8382462 C227.973233,42.1672706 226.998118,42.3851607 226.036017,42.6074531 C224.942233,42.9037139 223.821943,43.0915882 222.69135,43.1683585 C222.63588,43.1674431 222.559771,43.14839 222.550631,43.0995585 C222.541491,43.050727 222.592489,43.0055051 222.640334,42.992685 C222.968508,42.841486 223.309475,42.7197623 223.659208,42.6289515 Z" id="Combined-Shape" fill="#5A678C"></path>
                </g>
                <path d="M583.882517,258.579663 C583.882517,258.579663 574.474517,261.778383 561.491477,257.168463 C557.822357,255.286863 550.672277,251.711823 546.909077,246.725583 L547.567637,257.168463 C547.567637,257.168463 563.655317,275.702223 588.586517,268.269903 L583.882517,258.579663 Z" id="Shape" fill="url(#linearGradient-2)" fill-rule="nonzero"></path>
                <path d="M914.259589,262.955071 C914.259589,262.955071 891.997909,286.049359 852.674821,265.036591 L836.655349,276.686047 C836.655349,276.686047 875.562133,301.029247 903.233413,276.686047 L914.259589,262.955071 Z" id="Shape" fill="#0FA3B1" fill-rule="nonzero"></path>
                <path d="M833.872933,193.387615 L801.083701,199.422847 C801.083701,199.422847 805.105621,218.532847 798.668197,221.550463 L829.046629,214.913119 C829.046629,214.913119 833.470741,212.090719 833.872933,207.469039 C834.275125,202.847359 833.872933,193.387615 833.872933,193.387615 Z" id="Shape" fill="url(#linearGradient-3)" fill-rule="nonzero"></path>
                <path d="M802.095061,206.417695 L786.807061,210.077407 C786.807061,210.077407 792.771733,222.834655 798.675253,221.543407 C804.578773,220.252159 802.095061,206.417695 802.095061,206.417695 Z" id="Shape" fill="#0FA3B1" fill-rule="nonzero"></path>
            </g>
        </g>
    </g>
</svg>