<?xml version="1.0" encoding="UTF-8"?>
<svg width="43px" height="52px" viewBox="0 0 43 52" version="1.1" xmlns="http://www.w3.org/2000/svg" xmlns:xlink="http://www.w3.org/1999/xlink">
    <!-- Generator: Sketch 53 (72520) - https://sketchapp.com -->
    <title>Path 4</title>
    <desc>Created with Sketch.</desc>
    <g id="Web-Interface---AR" stroke="none" stroke-width="1" fill="none" fill-rule="evenodd">
        <g id="User-Settings---Support-&gt;-Message-Detail" transform="translate(-564.000000, -929.000000)" fill="#556286" fill-rule="nonzero">
            <path d="M606.891543,930.641841 C578.950835,937.977962 564.980481,954.856646 564.980481,981.277894 L564.980481,929.658186 L606.764563,929.658198 C607.040715,929.658198 607.26458,929.882064 607.26458,930.158216 C607.26458,930.385463 607.11134,930.584131 606.891543,930.641841 Z" id="Path-4" transform="translate(585.922410, 955.468040) scale(-1, 1) translate(-585.922410, -955.468040) "></path>
        </g>
    </g>
</svg>