<?xml version="1.0" encoding="UTF-8"?>
<svg width="149px" height="102px" viewBox="0 0 149 102" version="1.1" xmlns="http://www.w3.org/2000/svg" xmlns:xlink="http://www.w3.org/1999/xlink">
    <!-- Generator: Sketch 53 (72520) - https://sketchapp.com -->
    <title>credit-card</title>
    <desc>Created with Sketch.</desc>
    <defs>
        <linearGradient x1="61.5882641%" y1="26.658076%" x2="16.4970202%" y2="64.2159265%" id="linearGradient-1">
            <stop stop-color="#9EABC9" offset="0%"></stop>
            <stop stop-color="#556286" offset="100%"></stop>
        </linearGradient>
    </defs>
    <g id="Web-Interface---AR" stroke="none" stroke-width="1" fill="none" fill-rule="evenodd">
        <g id="Deposit-Transaction" transform="translate(-451.000000, -215.000000)">
            <g id="creditcard" transform="translate(450.682571, 214.671647)">
                <g id="credit-card" transform="translate(0.552977, 0.401616)">
                    <path d="M15.75,-1.42108547e-14 L132.051864,-1.42108547e-14 C140.750349,-3.57127468e-16 147.801864,7.05151519 147.801864,15.75 L147.801864,85.23648 C147.801864,93.9349648 140.750349,100.98648 132.051864,100.98648 L15.75,100.98648 C7.05151519,100.98648 1.14752095e-13,93.9349648 1.13686838e-13,85.23648 L1.13686838e-13,15.75 C1.12621581e-13,7.05151519 7.05151519,-1.2612969e-14 15.75,-1.42108547e-14 Z" id="Rectangle" fill="url(#linearGradient-1)" fill-rule="nonzero"></path>
                    <path d="M15.75,-1.42108547e-14 L132.051864,-1.42108547e-14 C140.750349,-3.57127468e-16 147.801864,7.05151519 147.801864,15.75 L147.801864,85.23648 C147.801864,93.9349648 140.750349,100.98648 132.051864,100.98648 L15.75,100.98648 C7.05151519,100.98648 1.14752095e-13,93.9349648 1.13686838e-13,85.23648 L1.13686838e-13,15.75 C1.12621581e-13,7.05151519 7.05151519,-1.2612969e-14 15.75,-1.42108547e-14 Z" id="Rectangle-Copy" fill="url(#linearGradient-1)" fill-rule="nonzero"></path>
                    <circle id="Oval" fill="#FAFAFA" fill-rule="nonzero" cx="98.67396" cy="73.691856" r="16.376472"></circle>
                    <circle id="Oval" fill="#E6E9F0" fill-rule="nonzero" cx="117.779592" cy="73.691856" r="16.376472"></circle>
                    <rect id="Rectangle" fill="#F2D5BD" fill-rule="nonzero" x="21.834792" y="13.647312" width="8.18748" height="10.91664"></rect>
                    <path d="M10.91664,24.563952 L10.91664,32.751432 C10.9174742,34.2591948 12.1395492,35.4812698 13.647312,35.482104 L21.834792,35.482104 L21.834792,24.563952 L10.91664,24.563952 Z" id="Path" fill="#D6B69F" fill-rule="nonzero"></path>
                    <path d="M21.834792,13.647312 L13.647312,13.647312 C12.1427392,13.6473037 10.9216386,14.8643475 10.91664,16.368912 L10.91664,24.556392 L21.834792,24.556392 L21.834792,13.647312 Z" id="Path" fill="#FFE2C6" fill-rule="nonzero"></path>
                    <path d="M21.834792,24.563952 L21.834792,35.482104 L35.482104,35.482104 C36.989622,35.4812693 38.2112642,34.2589502 38.211264,32.751432 L38.211264,24.563952 L21.834792,24.563952 Z" id="Path" fill="#FFE2C6" fill-rule="nonzero"></path>
                    <path d="M35.482104,13.647312 L30.022272,13.6473015 L30.022272,24.563952 L38.2112745,24.563952 L38.211264,16.376472 C38.2132791,15.6520379 37.9263906,14.9566939 37.4141363,14.4444397 C36.9018821,13.9321854 36.2065381,13.6452969 35.482104,13.647312 Z" id="Path" fill="#D6B69F" fill-rule="nonzero"></path>
                    <polygon id="Rectangle" fill="#556286" points="10.91664 84.610008 32.751432 84.610008 32.751432 90.068328 10.91664 90.068328"></polygon>
                    <path d="M37.6548912,84.1808082 L51.7188432,84.1808082 L51.7188432,89.6391282 L37.6548912,89.6391282 L37.6548912,84.1808082 Z M43.1132112,65.0751762 L68.0953152,65.0751762 L68.0953152,70.5334962 L43.1132112,70.5334962 L43.1132112,65.0751762 Z M106.305067,43.2403842 L130.869019,43.2403842 L130.869019,48.6987042 L106.305067,48.6987042 L106.305067,43.2403842 Z M70.8244752,43.2403842 L95.3884272,43.2403842 L95.3884272,48.6987042 L70.8244752,48.6987042 L70.8244752,43.2403842 Z M45.8423712,43.2403842 L59.9063232,43.2403842 L59.9063232,48.6987042 L45.8423712,48.6987042 L45.8423712,43.2403842 Z M10.3602672,43.2403842 L34.9242192,43.2403842 L34.9242192,48.6987042 L10.3602672,48.6987042 L10.3602672,43.2403842 Z M103.575907,7.75828018 L136.327339,7.75828018 L136.327339,13.2166002 L103.575907,13.2166002 L103.575907,7.75828018 Z M114.494059,18.6764322 L136.328851,18.6764322 L136.328851,24.1347522 L114.494059,24.1347522 L114.494059,18.6764322 Z" id="Combined-Shape" fill="#AFBCD8" fill-rule="nonzero"></path>
                </g>
            </g>
        </g>
    </g>
</svg>